%YAML 1.1
%TAG !u! tag:unity3d.com,2011:
--- !u!74 &7400000
AnimationClip:
  m_Name: Pulsating Scale + Rotate 2
  serializedVersion: 6
  m_Legacy: 0
  m_Compressed: 0
  m_UseHighQualityCurve: 1
  m_RotationCurves: []
  m_CompressedRotationCurves: []
  m_EulerCurves:
  - curve:
      serializedVersion: 2
      m_Curve:
      - serializedVersion: 3
        time: 0
        value: {x: 0, y: 0, z: 0}
        inSlope: {x: 0, y: 0, z: 0}
        outSlope: {x: 0, y: 0, z: -360.0303}
        tangentMode: 1
        weightedMode: 0
        inWeight: {x: 0.3333333, y: 0.3333333, z: 0.3333333}
        outWeight: {x: 0.3333333, y: 0.3333333, z: 0.3333333}
      - serializedVersion: 3
        time: 1
        value: {x: 0, y: 0, z: -360.0303}
        inSlope: {x: 0, y: 0, z: -360.0303}
        outSlope: {x: 0, y: 0, z: 0}
        tangentMode: 1
        weightedMode: 0
        inWeight: {x: 0.3333333, y: 0.3333333, z: 0.3333333}
        outWeight: {x: 0.3333333, y: 0.3333333, z: 0.3333333}
      m_PreInfinity: 2
      m_PostInfinity: 2
      m_RotationOrder: 4
    path: path_3544212333
  - curve:
      serializedVersion: 2
      m_Curve:
      - serializedVersion: 3
        time: 0
        value: {x: 0, y: 0, z: 0}
        inSlope: {x: 0, y: 0, z: 0}
        outSlope: {x: 0, y: 0, z: -360.0303}
        tangentMode: 1
        weightedMode: 0
        inWeight: {x: 0.3333333, y: 0.3333333, z: 0.3333333}
        outWeight: {x: 0.3333333, y: 0.3333333, z: 0.3333333}
      - serializedVersion: 3
        time: 1
        value: {x: 0, y: 0, z: -360.0303}
        inSlope: {x: 0, y: 0, z: -360.0303}
        outSlope: {x: 0, y: 0, z: 0}
        tangentMode: 1
        weightedMode: 0
        inWeight: {x: 0.3333333, y: 0.3333333, z: 0.3333333}
        outWeight: {x: 0.3333333, y: 0.3333333, z: 0.3333333}
      m_PreInfinity: 2
      m_PostInfinity: 2
      m_RotationOrder: 4
    path: path_3394982444
  - curve:
      serializedVersion: 2
      m_Curve:
      - serializedVersion: 3
        time: 0
        value: {x: 0, y: 0, z: 0}
        inSlope: {x: 0, y: 0, z: 0}
        outSlope: {x: 0, y: 0, z: -360.0303}
        tangentMode: 1
        weightedMode: 0
        inWeight: {x: 0.3333333, y: 0.3333333, z: 0.3333333}
        outWeight: {x: 0.3333333, y: 0.3333333, z: 0.3333333}
      - serializedVersion: 3
        time: 1
        value: {x: 0, y: 0, z: -360.0303}
        inSlope: {x: 0, y: 0, z: -360.0303}
        outSlope: {x: 0, y: 0, z: 0}
        tangentMode: 1
        weightedMode: 0
        inWeight: {x: 0.3333333, y: 0.3333333, z: 0.3333333}
        outWeight: {x: 0.3333333, y: 0.3333333, z: 0.3333333}
      m_PreInfinity: 2
      m_PostInfinity: 2
      m_RotationOrder: 4
    path: path_966977864
  - curve:
      serializedVersion: 2
      m_Curve:
      - serializedVersion: 3
        time: 0
        value: {x: 0, y: 0, z: 0}
        inSlope: {x: 0, y: 0, z: 0}
        outSlope: {x: 0, y: 0, z: -360.0303}
        tangentMode: 1
        weightedMode: 0
        inWeight: {x: 0.3333333, y: 0.3333333, z: 0.3333333}
        outWeight: {x: 0.3333333, y: 0.3333333, z: 0.3333333}
      - serializedVersion: 3
        time: 1
        value: {x: 0, y: 0, z: -360.0303}
        inSlope: {x: 0, y: 0, z: -360.0303}
        outSlope: {x: 0, y: 0, z: 0}
        tangentMode: 1
        weightedMode: 0
        inWeight: {x: 0.3333333, y: 0.3333333, z: 0.3333333}
        outWeight: {x: 0.3333333, y: 0.3333333, z: 0.3333333}
      m_PreInfinity: 2
      m_PostInfinity: 2
      m_RotationOrder: 4
    path: path_549050377
  - curve:
      serializedVersion: 2
      m_Curve:
      - serializedVersion: 3
        time: 0
        value: {x: 0, y: 0, z: 0}
        inSlope: {x: 0, y: 0, z: 0}
        outSlope: {x: 0, y: 0, z: -360.0303}
        tangentMode: 1
        weightedMode: 0
        inWeight: {x: 0.3333333, y: 0.3333333, z: 0.3333333}
        outWeight: {x: 0.3333333, y: 0.3333333, z: 0.3333333}
      - serializedVersion: 3
        time: 1
        value: {x: 0, y: 0, z: -360.0303}
        inSlope: {x: 0, y: 0, z: -360.0303}
        outSlope: {x: 0, y: 0, z: 0}
        tangentMode: 1
        weightedMode: 0
        inWeight: {x: 0.3333333, y: 0.3333333, z: 0.3333333}
        outWeight: {x: 0.3333333, y: 0.3333333, z: 0.3333333}
      m_PreInfinity: 2
      m_PostInfinity: 2
      m_RotationOrder: 4
    path: path_194284490
  - curve:
      serializedVersion: 2
      m_Curve:
      - serializedVersion: 3
        time: 0
        value: {x: 0, y: 0, z: 0}
        inSlope: {x: 0, y: 0, z: 0}
        outSlope: {x: 0, y: 0, z: -360.0303}
        tangentMode: 1
        weightedMode: 0
        inWeight: {x: 0.3333333, y: 0.3333333, z: 0.3333333}
        outWeight: {x: 0.3333333, y: 0.3333333, z: 0.3333333}
      - serializedVersion: 3
        time: 1
        value: {x: 0, y: 0, z: -360.0303}
        inSlope: {x: 0, y: 0, z: -360.0303}
        outSlope: {x: 0, y: 0, z: 0}
        tangentMode: 1
        weightedMode: 0
        inWeight: {x: 0.3333333, y: 0.3333333, z: 0.3333333}
        outWeight: {x: 0.3333333, y: 0.3333333, z: 0.3333333}
      m_PreInfinity: 2
      m_PostInfinity: 2
      m_RotationOrder: 4
    path: path_311409291
  - curve:
      serializedVersion: 2
      m_Curve:
      - serializedVersion: 3
        time: 0
        value: {x: 0, y: 0, z: 0}
        inSlope: {x: 0, y: 0, z: 0}
        outSlope: {x: 0, y: 0, z: -360.0303}
        tangentMode: 1
        weightedMode: 0
        inWeight: {x: 0.3333333, y: 0.3333333, z: 0.3333333}
        outWeight: {x: 0.3333333, y: 0.3333333, z: 0.3333333}
      - serializedVersion: 3
        time: 1
        value: {x: 0, y: 0, z: -360.0303}
        inSlope: {x: 0, y: 0, z: -360.0303}
        outSlope: {x: 0, y: 0, z: 0}
        tangentMode: 1
        weightedMode: 0
        inWeight: {x: 0.3333333, y: 0.3333333, z: 0.3333333}
        outWeight: {x: 0.3333333, y: 0.3333333, z: 0.3333333}
      m_PreInfinity: 2
      m_PostInfinity: 2
      m_RotationOrder: 4
    path: path_1573792844
  - curve:
      serializedVersion: 2
      m_Curve:
      - serializedVersion: 3
        time: 0
        value: {x: 0, y: 0, z: 0}
        inSlope: {x: 0, y: 0, z: 0}
        outSlope: {x: 0, y: 0, z: -360.0303}
        tangentMode: 1
        weightedMode: 0
        inWeight: {x: 0.3333333, y: 0.3333333, z: 0.3333333}
        outWeight: {x: 0.3333333, y: 0.3333333, z: 0.3333333}
      - serializedVersion: 3
        time: 1
        value: {x: 0, y: 0, z: -360.0303}
        inSlope: {x: 0, y: 0, z: -360.0303}
        outSlope: {x: 0, y: 0, z: 0}
        tangentMode: 1
        weightedMode: 0
        inWeight: {x: 0.3333333, y: 0.3333333, z: 0.3333333}
        outWeight: {x: 0.3333333, y: 0.3333333, z: 0.3333333}
      m_PreInfinity: 2
      m_PostInfinity: 2
      m_RotationOrder: 4
    path: path_1154817293
  - curve:
      serializedVersion: 2
      m_Curve:
      - serializedVersion: 3
        time: 0
        value: {x: 0, y: 0, z: 0}
        inSlope: {x: 0, y: 0, z: 0}
        outSlope: {x: 0, y: 0, z: -360.0303}
        tangentMode: 1
        weightedMode: 0
        inWeight: {x: 0.3333333, y: 0.3333333, z: 0.3333333}
        outWeight: {x: 0.3333333, y: 0.3333333, z: 0.3333333}
      - serializedVersion: 3
        time: 1
        value: {x: 0, y: 0, z: -360.0303}
        inSlope: {x: 0, y: 0, z: -360.0303}
        outSlope: {x: 0, y: 0, z: 0}
        tangentMode: 1
        weightedMode: 0
        inWeight: {x: 0.3333333, y: 0.3333333, z: 0.3333333}
        outWeight: {x: 0.3333333, y: 0.3333333, z: 0.3333333}
      m_PreInfinity: 2
      m_PostInfinity: 2
      m_RotationOrder: 4
    path: path_1878544078
  - curve:
      serializedVersion: 2
      m_Curve:
      - serializedVersion: 3
        time: 0
        value: {x: 0, y: 0, z: 0}
        inSlope: {x: 0, y: 0, z: 0}
        outSlope: {x: 0, y: 0, z: -360.0303}
        tangentMode: 1
        weightedMode: 0
        inWeight: {x: 0.3333333, y: 0.3333333, z: 0.3333333}
        outWeight: {x: 0.3333333, y: 0.3333333, z: 0.3333333}
      - serializedVersion: 3
        time: 1
        value: {x: 0, y: 0, z: -360.0303}
        inSlope: {x: 0, y: 0, z: -360.0303}
        outSlope: {x: 0, y: 0, z: 0}
        tangentMode: 1
        weightedMode: 0
        inWeight: {x: 0.3333333, y: 0.3333333, z: 0.3333333}
        outWeight: {x: 0.3333333, y: 0.3333333, z: 0.3333333}
      m_PreInfinity: 2
      m_PostInfinity: 2
      m_RotationOrder: 4
    path: path_1994620815
  - curve:
      serializedVersion: 2
      m_Curve:
      - serializedVersion: 3
        time: 0
        value: {x: 0, y: 0, z: 0}
        inSlope: {x: 0, y: 0, z: 0}
        outSlope: {x: 0, y: 0, z: -360.0303}
        tangentMode: 1
        weightedMode: 0
        inWeight: {x: 0.3333333, y: 0.3333333, z: 0.3333333}
        outWeight: {x: 0.3333333, y: 0.3333333, z: 0.3333333}
      - serializedVersion: 3
        time: 1
        value: {x: 0, y: 0, z: -360.0303}
        inSlope: {x: 0, y: 0, z: -360.0303}
        outSlope: {x: 0, y: 0, z: 0}
        tangentMode: 1
        weightedMode: 0
        inWeight: {x: 0.3333333, y: 0.3333333, z: 0.3333333}
        outWeight: {x: 0.3333333, y: 0.3333333, z: 0.3333333}
      m_PreInfinity: 2
      m_PostInfinity: 2
      m_RotationOrder: 4
    path: path_4051395392
  - curve:
      serializedVersion: 2
      m_Curve:
      - serializedVersion: 3
        time: 0
        value: {x: 0, y: 0, z: 0}
        inSlope: {x: 0, y: 0, z: 0}
        outSlope: {x: 0, y: 0, z: -360.0303}
        tangentMode: 1
        weightedMode: 0
        inWeight: {x: 0.3333333, y: 0.3333333, z: 0.3333333}
        outWeight: {x: 0.3333333, y: 0.3333333, z: 0.3333333}
      - serializedVersion: 3
        time: 1
        value: {x: 0, y: 0, z: -360.0303}
        inSlope: {x: 0, y: 0, z: -360.0303}
        outSlope: {x: 0, y: 0, z: 0}
        tangentMode: 1
        weightedMode: 0
        inWeight: {x: 0.3333333, y: 0.3333333, z: 0.3333333}
        outWeight: {x: 0.3333333, y: 0.3333333, z: 0.3333333}
      m_PreInfinity: 2
      m_PostInfinity: 2
      m_RotationOrder: 4
    path: path_3898626561
  - curve:
      serializedVersion: 2
      m_Curve:
      - serializedVersion: 3
        time: 0
        value: {x: 0, y: 0, z: 0}
        inSlope: {x: 0, y: 0, z: 0}
        outSlope: {x: 0, y: 0, z: -360.0303}
        tangentMode: 1
        weightedMode: 0
        inWeight: {x: 0.3333333, y: 0.3333333, z: 0.3333333}
        outWeight: {x: 0.3333333, y: 0.3333333, z: 0.3333333}
      - serializedVersion: 3
        time: 1
        value: {x: 0, y: 0, z: -360.0303}
        inSlope: {x: 0, y: 0, z: -360.0303}
        outSlope: {x: 0, y: 0, z: 0}
        tangentMode: 1
        weightedMode: 0
        inWeight: {x: 0.3333333, y: 0.3333333, z: 0.3333333}
        outWeight: {x: 0.3333333, y: 0.3333333, z: 0.3333333}
      m_PreInfinity: 2
      m_PostInfinity: 2
      m_RotationOrder: 4
    path: path_3782607343
  - curve:
      serializedVersion: 2
      m_Curve:
      - serializedVersion: 3
        time: 0
        value: {x: 0, y: 0, z: 0}
        inSlope: {x: 0, y: 0, z: 0}
        outSlope: {x: 0, y: 0, z: -360.0303}
        tangentMode: 1
        weightedMode: 0
        inWeight: {x: 0.3333333, y: 0.3333333, z: 0.3333333}
        outWeight: {x: 0.3333333, y: 0.3333333, z: 0.3333333}
      - serializedVersion: 3
        time: 1
        value: {x: 0, y: 0, z: -360.0303}
        inSlope: {x: 0, y: 0, z: -360.0303}
        outSlope: {x: 0, y: 0, z: 0}
        tangentMode: 1
        weightedMode: 0
        inWeight: {x: 0.3333333, y: 0.3333333, z: 0.3333333}
        outWeight: {x: 0.3333333, y: 0.3333333, z: 0.3333333}
      m_PreInfinity: 2
      m_PostInfinity: 2
      m_RotationOrder: 4
    path: path_1004820241
  - curve:
      serializedVersion: 2
      m_Curve:
      - serializedVersion: 3
        time: 0
        value: {x: 0, y: 0, z: 0}
        inSlope: {x: 0, y: 0, z: 0}
        outSlope: {x: 0, y: 0, z: -360.0303}
        tangentMode: 1
        weightedMode: 0
        inWeight: {x: 0.3333333, y: 0.3333333, z: 0.3333333}
        outWeight: {x: 0.3333333, y: 0.3333333, z: 0.3333333}
      - serializedVersion: 3
        time: 1
        value: {x: 0, y: 0, z: -360.0303}
        inSlope: {x: 0, y: 0, z: -360.0303}
        outSlope: {x: 0, y: 0, z: 0}
        tangentMode: 1
        weightedMode: 0
        inWeight: {x: 0.3333333, y: 0.3333333, z: 0.3333333}
        outWeight: {x: 0.3333333, y: 0.3333333, z: 0.3333333}
      m_PreInfinity: 2
      m_PostInfinity: 2
      m_RotationOrder: 4
    path: path_587163216
  - curve:
      serializedVersion: 2
      m_Curve:
      - serializedVersion: 3
        time: 0
        value: {x: 0, y: 0, z: 0}
        inSlope: {x: 0, y: 0, z: 0}
        outSlope: {x: 0, y: 0, z: -360.0303}
        tangentMode: 1
        weightedMode: 0
        inWeight: {x: 0.3333333, y: 0.3333333, z: 0.3333333}
        outWeight: {x: 0.3333333, y: 0.3333333, z: 0.3333333}
      - serializedVersion: 3
        time: 1
        value: {x: 0, y: 0, z: -360.0303}
        inSlope: {x: 0, y: 0, z: -360.0303}
        outSlope: {x: 0, y: 0, z: 0}
        tangentMode: 1
        weightedMode: 0
        inWeight: {x: 0.3333333, y: 0.3333333, z: 0.3333333}
        outWeight: {x: 0.3333333, y: 0.3333333, z: 0.3333333}
      m_PreInfinity: 2
      m_PostInfinity: 2
      m_RotationOrder: 4
    path: path_164771219
  - curve:
      serializedVersion: 2
      m_Curve:
      - serializedVersion: 3
        time: 0
        value: {x: 0, y: 0, z: 0}
        inSlope: {x: 0, y: 0, z: 0}
        outSlope: {x: 0, y: 0, z: -360.0303}
        tangentMode: 1
        weightedMode: 0
        inWeight: {x: 0.3333333, y: 0.3333333, z: 0.3333333}
        outWeight: {x: 0.3333333, y: 0.3333333, z: 0.3333333}
      - serializedVersion: 3
        time: 1
        value: {x: 0, y: 0, z: -360.0303}
        inSlope: {x: 0, y: 0, z: -360.0303}
        outSlope: {x: 0, y: 0, z: 0}
        tangentMode: 1
        weightedMode: 0
        inWeight: {x: 0.3333333, y: 0.3333333, z: 0.3333333}
        outWeight: {x: 0.3333333, y: 0.3333333, z: 0.3333333}
      m_PreInfinity: 2
      m_PostInfinity: 2
      m_RotationOrder: 4
    path: path_281609426
  - curve:
      serializedVersion: 2
      m_Curve:
      - serializedVersion: 3
        time: 0
        value: {x: 0, y: 0, z: 0}
        inSlope: {x: 0, y: 0, z: 0}
        outSlope: {x: 0, y: 0, z: -360.0303}
        tangentMode: 1
        weightedMode: 0
        inWeight: {x: 0.3333333, y: 0.3333333, z: 0.3333333}
        outWeight: {x: 0.3333333, y: 0.3333333, z: 0.3333333}
      - serializedVersion: 3
        time: 1
        value: {x: 0, y: 0, z: -360.0303}
        inSlope: {x: 0, y: 0, z: -360.0303}
        outSlope: {x: 0, y: 0, z: 0}
        tangentMode: 1
        weightedMode: 0
        inWeight: {x: 0.3333333, y: 0.3333333, z: 0.3333333}
        outWeight: {x: 0.3333333, y: 0.3333333, z: 0.3333333}
      m_PreInfinity: 2
      m_PostInfinity: 2
      m_RotationOrder: 4
    path: path_1602785813
  - curve:
      serializedVersion: 2
      m_Curve:
      - serializedVersion: 3
        time: 0
        value: {x: 0, y: 0, z: 0}
        inSlope: {x: 0, y: 0, z: 0}
        outSlope: {x: 0, y: 0, z: -360.0303}
        tangentMode: 1
        weightedMode: 0
        inWeight: {x: 0.3333333, y: 0.3333333, z: 0.3333333}
        outWeight: {x: 0.3333333, y: 0.3333333, z: 0.3333333}
      - serializedVersion: 3
        time: 1
        value: {x: 0, y: 0, z: -360.0303}
        inSlope: {x: 0, y: 0, z: -360.0303}
        outSlope: {x: 0, y: 0, z: 0}
        tangentMode: 1
        weightedMode: 0
        inWeight: {x: 0.3333333, y: 0.3333333, z: 0.3333333}
        outWeight: {x: 0.3333333, y: 0.3333333, z: 0.3333333}
      m_PreInfinity: 2
      m_PostInfinity: 2
      m_RotationOrder: 4
    path: path_1184080724
  - curve:
      serializedVersion: 2
      m_Curve:
      - serializedVersion: 3
        time: 0
        value: {x: 0, y: 0, z: 0}
        inSlope: {x: 0, y: 0, z: 0}
        outSlope: {x: 0, y: 0, z: -360.0303}
        tangentMode: 1
        weightedMode: 0
        inWeight: {x: 0.3333333, y: 0.3333333, z: 0.3333333}
        outWeight: {x: 0.3333333, y: 0.3333333, z: 0.3333333}
      - serializedVersion: 3
        time: 1
        value: {x: 0, y: 0, z: -360.0303}
        inSlope: {x: 0, y: 0, z: -360.0303}
        outSlope: {x: 0, y: 0, z: 0}
        tangentMode: 1
        weightedMode: 0
        inWeight: {x: 0.3333333, y: 0.3333333, z: 0.3333333}
        outWeight: {x: 0.3333333, y: 0.3333333, z: 0.3333333}
      m_PreInfinity: 2
      m_PostInfinity: 2
      m_RotationOrder: 4
    path: path_1841229975
  - curve:
      serializedVersion: 2
      m_Curve:
      - serializedVersion: 3
        time: 0
        value: {x: 0, y: 0, z: 0}
        inSlope: {x: 0, y: 0, z: 0}
        outSlope: {x: 0, y: 0, z: -360.0303}
        tangentMode: 1
        weightedMode: 0
        inWeight: {x: 0.3333333, y: 0.3333333, z: 0.3333333}
        outWeight: {x: 0.3333333, y: 0.3333333, z: 0.3333333}
      - serializedVersion: 3
        time: 1
        value: {x: 0, y: 0, z: -360.0303}
        inSlope: {x: 0, y: 0, z: -360.0303}
        outSlope: {x: 0, y: 0, z: 0}
        tangentMode: 1
        weightedMode: 0
        inWeight: {x: 0.3333333, y: 0.3333333, z: 0.3333333}
        outWeight: {x: 0.3333333, y: 0.3333333, z: 0.3333333}
      m_PreInfinity: 2
      m_PostInfinity: 2
      m_RotationOrder: 4
    path: path_1957020118
  - curve:
      serializedVersion: 2
      m_Curve:
      - serializedVersion: 3
        time: 0
        value: {x: 0, y: 0, z: 0}
        inSlope: {x: 0, y: 0, z: 0}
        outSlope: {x: 0, y: 0, z: -360.0303}
        tangentMode: 1
        weightedMode: 0
        inWeight: {x: 0.3333333, y: 0.3333333, z: 0.3333333}
        outWeight: {x: 0.3333333, y: 0.3333333, z: 0.3333333}
      - serializedVersion: 3
        time: 1
        value: {x: 0, y: 0, z: -360.0303}
        inSlope: {x: 0, y: 0, z: -360.0303}
        outSlope: {x: 0, y: 0, z: 0}
        tangentMode: 1
        weightedMode: 0
        inWeight: {x: 0.3333333, y: 0.3333333, z: 0.3333333}
        outWeight: {x: 0.3333333, y: 0.3333333, z: 0.3333333}
      m_PreInfinity: 2
      m_PostInfinity: 2
      m_RotationOrder: 4
    path: path_4080917785
  - curve:
      serializedVersion: 2
      m_Curve:
      - serializedVersion: 3
        time: 0
        value: {x: 0, y: 0, z: 0}
        inSlope: {x: 0, y: 0, z: 0}
        outSlope: {x: 0, y: 0, z: -360.0303}
        tangentMode: 1
        weightedMode: 0
        inWeight: {x: 0.3333333, y: 0.3333333, z: 0.3333333}
        outWeight: {x: 0.3333333, y: 0.3333333, z: 0.3333333}
      - serializedVersion: 3
        time: 1
        value: {x: 0, y: 0, z: -360.0303}
        inSlope: {x: 0, y: 0, z: -360.0303}
        outSlope: {x: 0, y: 0, z: 0}
        tangentMode: 1
        weightedMode: 0
        inWeight: {x: 0.3333333, y: 0.3333333, z: 0.3333333}
        outWeight: {x: 0.3333333, y: 0.3333333, z: 0.3333333}
      m_PreInfinity: 2
      m_PostInfinity: 2
      m_RotationOrder: 4
    path: path_3928419416
  - curve:
      serializedVersion: 2
      m_Curve:
      - serializedVersion: 3
        time: 0
        value: {x: 0, y: 0, z: 0}
        inSlope: {x: 0, y: 0, z: 0}
        outSlope: {x: 0, y: 0, z: -360.0303}
        tangentMode: 1
        weightedMode: 0
        inWeight: {x: 0.3333333, y: 0.3333333, z: 0.3333333}
        outWeight: {x: 0.3333333, y: 0.3333333, z: 0.3333333}
      - serializedVersion: 3
        time: 1
        value: {x: 0, y: 0, z: -360.0303}
        inSlope: {x: 0, y: 0, z: -360.0303}
        outSlope: {x: 0, y: 0, z: 0}
        tangentMode: 1
        weightedMode: 0
        inWeight: {x: 0.3333333, y: 0.3333333, z: 0.3333333}
        outWeight: {x: 0.3333333, y: 0.3333333, z: 0.3333333}
      m_PreInfinity: 2
      m_PostInfinity: 2
      m_RotationOrder: 4
    path: path_4167905454
  - curve:
      serializedVersion: 2
      m_Curve:
      - serializedVersion: 3
        time: 0
        value: {x: 0, y: 0, z: 0}
        inSlope: {x: 0, y: 0, z: 0}
        outSlope: {x: 0, y: 0, z: -360.0303}
        tangentMode: 1
        weightedMode: 0
        inWeight: {x: 0.3333333, y: 0.3333333, z: 0.3333333}
        outWeight: {x: 0.3333333, y: 0.3333333, z: 0.3333333}
      - serializedVersion: 3
        time: 1
        value: {x: 0, y: 0, z: -360.0303}
        inSlope: {x: 0, y: 0, z: -360.0303}
        outSlope: {x: 0, y: 0, z: 0}
        tangentMode: 1
        weightedMode: 0
        inWeight: {x: 0.3333333, y: 0.3333333, z: 0.3333333}
        outWeight: {x: 0.3333333, y: 0.3333333, z: 0.3333333}
      m_PreInfinity: 2
      m_PostInfinity: 2
      m_RotationOrder: 4
    path: path_975584550
  - curve:
      serializedVersion: 2
      m_Curve:
      - serializedVersion: 3
        time: 0
        value: {x: 0, y: 0, z: 0}
        inSlope: {x: 0, y: 0, z: 0}
        outSlope: {x: 0, y: 0, z: -360.0303}
        tangentMode: 1
        weightedMode: 0
        inWeight: {x: 0.3333333, y: 0.3333333, z: 0.3333333}
        outWeight: {x: 0.3333333, y: 0.3333333, z: 0.3333333}
      - serializedVersion: 3
        time: 1
        value: {x: 0, y: 0, z: -360.0303}
        inSlope: {x: 0, y: 0, z: -360.0303}
        outSlope: {x: 0, y: 0, z: 0}
        tangentMode: 1
        weightedMode: 0
        inWeight: {x: 0.3333333, y: 0.3333333, z: 0.3333333}
        outWeight: {x: 0.3333333, y: 0.3333333, z: 0.3333333}
      m_PreInfinity: 2
      m_PostInfinity: 2
      m_RotationOrder: 4
    path: path_591203431
  - curve:
      serializedVersion: 2
      m_Curve:
      - serializedVersion: 3
        time: 0
        value: {x: 0, y: 0, z: 0}
        inSlope: {x: 0, y: 0, z: 0}
        outSlope: {x: 0, y: 0, z: -360.0303}
        tangentMode: 1
        weightedMode: 0
        inWeight: {x: 0.3333333, y: 0.3333333, z: 0.3333333}
        outWeight: {x: 0.3333333, y: 0.3333333, z: 0.3333333}
      - serializedVersion: 3
        time: 1
        value: {x: 0, y: 0, z: -360.0303}
        inSlope: {x: 0, y: 0, z: -360.0303}
        outSlope: {x: 0, y: 0, z: 0}
        tangentMode: 1
        weightedMode: 0
        inWeight: {x: 0.3333333, y: 0.3333333, z: 0.3333333}
        outWeight: {x: 0.3333333, y: 0.3333333, z: 0.3333333}
      m_PreInfinity: 2
      m_PostInfinity: 2
      m_RotationOrder: 4
    path: path_135290788
  - curve:
      serializedVersion: 2
      m_Curve:
      - serializedVersion: 3
        time: 0
        value: {x: 0, y: 0, z: 0}
        inSlope: {x: 0, y: 0, z: 0}
        outSlope: {x: 0, y: 0, z: -360.0303}
        tangentMode: 1
        weightedMode: 0
        inWeight: {x: 0.3333333, y: 0.3333333, z: 0.3333333}
        outWeight: {x: 0.3333333, y: 0.3333333, z: 0.3333333}
      - serializedVersion: 3
        time: 1
        value: {x: 0, y: 0, z: -360.0303}
        inSlope: {x: 0, y: 0, z: -360.0303}
        outSlope: {x: 0, y: 0, z: 0}
        tangentMode: 1
        weightedMode: 0
        inWeight: {x: 0.3333333, y: 0.3333333, z: 0.3333333}
        outWeight: {x: 0.3333333, y: 0.3333333, z: 0.3333333}
      m_PreInfinity: 2
      m_PostInfinity: 2
      m_RotationOrder: 4
    path: path_285961957
  - curve:
      serializedVersion: 2
      m_Curve:
      - serializedVersion: 3
        time: 0
        value: {x: 0, y: 0, z: 0}
        inSlope: {x: 0, y: 0, z: 0}
        outSlope: {x: 0, y: 0, z: -360.0303}
        tangentMode: 1
        weightedMode: 0
        inWeight: {x: 0.3333333, y: 0.3333333, z: 0.3333333}
        outWeight: {x: 0.3333333, y: 0.3333333, z: 0.3333333}
      - serializedVersion: 3
        time: 1
        value: {x: 0, y: 0, z: -360.0303}
        inSlope: {x: 0, y: 0, z: -360.0303}
        outSlope: {x: 0, y: 0, z: 0}
        tangentMode: 1
        weightedMode: 0
        inWeight: {x: 0.3333333, y: 0.3333333, z: 0.3333333}
        outWeight: {x: 0.3333333, y: 0.3333333, z: 0.3333333}
      m_PreInfinity: 2
      m_PostInfinity: 2
      m_RotationOrder: 4
    path: path_1581971490
  - curve:
      serializedVersion: 2
      m_Curve:
      - serializedVersion: 3
        time: 0
        value: {x: 0, y: 0, z: 0}
        inSlope: {x: 0, y: 0, z: 0}
        outSlope: {x: 0, y: 0, z: -360.0303}
        tangentMode: 1
        weightedMode: 0
        inWeight: {x: 0.3333333, y: 0.3333333, z: 0.3333333}
        outWeight: {x: 0.3333333, y: 0.3333333, z: 0.3333333}
      - serializedVersion: 3
        time: 1
        value: {x: 0, y: 0, z: -360.0303}
        inSlope: {x: 0, y: 0, z: -360.0303}
        outSlope: {x: 0, y: 0, z: 0}
        tangentMode: 1
        weightedMode: 0
        inWeight: {x: 0.3333333, y: 0.3333333, z: 0.3333333}
        outWeight: {x: 0.3333333, y: 0.3333333, z: 0.3333333}
      m_PreInfinity: 2
      m_PostInfinity: 2
      m_RotationOrder: 4
    path: path_1196542307
  - curve:
      serializedVersion: 2
      m_Curve:
      - serializedVersion: 3
        time: 0
        value: {x: 0, y: 0, z: 0}
        inSlope: {x: 0, y: 0, z: 0}
        outSlope: {x: 0, y: 0, z: -360.0303}
        tangentMode: 1
        weightedMode: 0
        inWeight: {x: 0.3333333, y: 0.3333333, z: 0.3333333}
        outWeight: {x: 0.3333333, y: 0.3333333, z: 0.3333333}
      - serializedVersion: 3
        time: 1
        value: {x: 0, y: 0, z: -360.0303}
        inSlope: {x: 0, y: 0, z: -360.0303}
        outSlope: {x: 0, y: 0, z: 0}
        tangentMode: 1
        weightedMode: 0
        inWeight: {x: 0.3333333, y: 0.3333333, z: 0.3333333}
        outWeight: {x: 0.3333333, y: 0.3333333, z: 0.3333333}
      m_PreInfinity: 2
      m_PostInfinity: 2
      m_RotationOrder: 4
    path: path_1820105376
  - curve:
      serializedVersion: 2
      m_Curve:
      - serializedVersion: 3
        time: 0
        value: {x: 0, y: 0, z: 0}
        inSlope: {x: 0, y: 0, z: 0}
        outSlope: {x: 0, y: 0, z: -360.0303}
        tangentMode: 1
        weightedMode: 0
        inWeight: {x: 0.3333333, y: 0.3333333, z: 0.3333333}
        outWeight: {x: 0.3333333, y: 0.3333333, z: 0.3333333}
      - serializedVersion: 3
        time: 1
        value: {x: 0, y: 0, z: -360.0303}
        inSlope: {x: 0, y: 0, z: -360.0303}
        outSlope: {x: 0, y: 0, z: 0}
        tangentMode: 1
        weightedMode: 0
        inWeight: {x: 0.3333333, y: 0.3333333, z: 0.3333333}
        outWeight: {x: 0.3333333, y: 0.3333333, z: 0.3333333}
      m_PreInfinity: 2
      m_PostInfinity: 2
      m_RotationOrder: 4
    path: path_1969728481
  - curve:
      serializedVersion: 2
      m_Curve:
      - serializedVersion: 3
        time: 0
        value: {x: 0, y: 0, z: 0}
        inSlope: {x: 0, y: 0, z: 0}
        outSlope: {x: 0, y: 0, z: -360.0303}
        tangentMode: 1
        weightedMode: 0
        inWeight: {x: 0.3333333, y: 0.3333333, z: 0.3333333}
        outWeight: {x: 0.3333333, y: 0.3333333, z: 0.3333333}
      - serializedVersion: 3
        time: 1
        value: {x: 0, y: 0, z: -360.0303}
        inSlope: {x: 0, y: 0, z: -360.0303}
        outSlope: {x: 0, y: 0, z: 0}
        tangentMode: 1
        weightedMode: 0
        inWeight: {x: 0.3333333, y: 0.3333333, z: 0.3333333}
        outWeight: {x: 0.3333333, y: 0.3333333, z: 0.3333333}
      m_PreInfinity: 2
      m_PostInfinity: 2
      m_RotationOrder: 4
    path: path_4076844846
  - curve:
      serializedVersion: 2
      m_Curve:
      - serializedVersion: 3
        time: 0
        value: {x: 0, y: 0, z: 0}
        inSlope: {x: 0, y: 0, z: 0}
        outSlope: {x: 0, y: 0, z: -360.0303}
        tangentMode: 1
        weightedMode: 0
        inWeight: {x: 0.3333333, y: 0.3333333, z: 0.3333333}
        outWeight: {x: 0.3333333, y: 0.3333333, z: 0.3333333}
      - serializedVersion: 3
        time: 1
        value: {x: 0, y: 0, z: -360.0303}
        inSlope: {x: 0, y: 0, z: -360.0303}
        outSlope: {x: 0, y: 0, z: 0}
        tangentMode: 1
        weightedMode: 0
        inWeight: {x: 0.3333333, y: 0.3333333, z: 0.3333333}
        outWeight: {x: 0.3333333, y: 0.3333333, z: 0.3333333}
      m_PreInfinity: 2
      m_PostInfinity: 2
      m_RotationOrder: 4
    path: path_3957622383
  - curve:
      serializedVersion: 2
      m_Curve:
      - serializedVersion: 3
        time: 0
        value: {x: 0, y: 0, z: 0}
        inSlope: {x: 0, y: 0, z: 0}
        outSlope: {x: 0, y: 0, z: -360.0303}
        tangentMode: 1
        weightedMode: 0
        inWeight: {x: 0.3333333, y: 0.3333333, z: 0.3333333}
        outWeight: {x: 0.3333333, y: 0.3333333, z: 0.3333333}
      - serializedVersion: 3
        time: 1
        value: {x: 0, y: 0, z: -360.0303}
        inSlope: {x: 0, y: 0, z: -360.0303}
        outSlope: {x: 0, y: 0, z: 0}
        tangentMode: 1
        weightedMode: 0
        inWeight: {x: 0.3333333, y: 0.3333333, z: 0.3333333}
        outWeight: {x: 0.3333333, y: 0.3333333, z: 0.3333333}
      m_PreInfinity: 2
      m_PostInfinity: 2
      m_RotationOrder: 4
    path: path_3073156713
  - curve:
      serializedVersion: 2
      m_Curve:
      - serializedVersion: 3
        time: 0
        value: {x: 0, y: 0, z: 0}
        inSlope: {x: 0, y: 0, z: 0}
        outSlope: {x: 0, y: 0, z: -360.0303}
        tangentMode: 1
        weightedMode: 0
        inWeight: {x: 0.3333333, y: 0.3333333, z: 0.3333333}
        outWeight: {x: 0.3333333, y: 0.3333333, z: 0.3333333}
      - serializedVersion: 3
        time: 1
        value: {x: 0, y: 0, z: -360.0303}
        inSlope: {x: 0, y: 0, z: -360.0303}
        outSlope: {x: 0, y: 0, z: 0}
        tangentMode: 1
        weightedMode: 0
        inWeight: {x: 0.3333333, y: 0.3333333, z: 0.3333333}
        outWeight: {x: 0.3333333, y: 0.3333333, z: 0.3333333}
      m_PreInfinity: 2
      m_PostInfinity: 2
      m_RotationOrder: 4
    path: path_2922878760
  - curve:
      serializedVersion: 2
      m_Curve:
      - serializedVersion: 3
        time: 0
        value: {x: 0, y: 0, z: 0}
        inSlope: {x: 0, y: 0, z: 0}
        outSlope: {x: 0, y: 0, z: -360.0303}
        tangentMode: 1
        weightedMode: 0
        inWeight: {x: 0.3333333, y: 0.3333333, z: 0.3333333}
        outWeight: {x: 0.3333333, y: 0.3333333, z: 0.3333333}
      - serializedVersion: 3
        time: 1
        value: {x: 0, y: 0, z: -360.0303}
        inSlope: {x: 0, y: 0, z: -360.0303}
        outSlope: {x: 0, y: 0, z: 0}
        tangentMode: 1
        weightedMode: 0
        inWeight: {x: 0.3333333, y: 0.3333333, z: 0.3333333}
        outWeight: {x: 0.3333333, y: 0.3333333, z: 0.3333333}
      m_PreInfinity: 2
      m_PostInfinity: 2
      m_RotationOrder: 4
    path: path_2233124075
  - curve:
      serializedVersion: 2
      m_Curve:
      - serializedVersion: 3
        time: 0
        value: {x: 0, y: 0, z: 0}
        inSlope: {x: 0, y: 0, z: 0}
        outSlope: {x: 0, y: 0, z: -360.0303}
        tangentMode: 1
        weightedMode: 0
        inWeight: {x: 0.3333333, y: 0.3333333, z: 0.3333333}
        outWeight: {x: 0.3333333, y: 0.3333333, z: 0.3333333}
      - serializedVersion: 3
        time: 1
        value: {x: 0, y: 0, z: -360.0303}
        inSlope: {x: 0, y: 0, z: -360.0303}
        outSlope: {x: 0, y: 0, z: 0}
        tangentMode: 1
        weightedMode: 0
        inWeight: {x: 0.3333333, y: 0.3333333, z: 0.3333333}
        outWeight: {x: 0.3333333, y: 0.3333333, z: 0.3333333}
      m_PreInfinity: 2
      m_PostInfinity: 2
      m_RotationOrder: 4
    path: path_2617374122
  - curve:
      serializedVersion: 2
      m_Curve:
      - serializedVersion: 3
        time: 0
        value: {x: 0, y: 0, z: 0}
        inSlope: {x: 0, y: 0, z: 0}
        outSlope: {x: 0, y: 0, z: -360.0303}
        tangentMode: 1
        weightedMode: 0
        inWeight: {x: 0.3333333, y: 0.3333333, z: 0.3333333}
        outWeight: {x: 0.3333333, y: 0.3333333, z: 0.3333333}
      - serializedVersion: 3
        time: 1
        value: {x: 0, y: 0, z: -360.0303}
        inSlope: {x: 0, y: 0, z: -360.0303}
        outSlope: {x: 0, y: 0, z: 0}
        tangentMode: 1
        weightedMode: 0
        inWeight: {x: 0.3333333, y: 0.3333333, z: 0.3333333}
        outWeight: {x: 0.3333333, y: 0.3333333, z: 0.3333333}
      m_PreInfinity: 2
      m_PostInfinity: 2
      m_RotationOrder: 4
    path: path_463071589
  - curve:
      serializedVersion: 2
      m_Curve:
      - serializedVersion: 3
        time: 0
        value: {x: 0, y: 0, z: 0}
        inSlope: {x: 0, y: 0, z: 0}
        outSlope: {x: 0, y: 0, z: -360.0303}
        tangentMode: 1
        weightedMode: 0
        inWeight: {x: 0.3333333, y: 0.3333333, z: 0.3333333}
        outWeight: {x: 0.3333333, y: 0.3333333, z: 0.3333333}
      - serializedVersion: 3
        time: 1
        value: {x: 0, y: 0, z: -360.0303}
        inSlope: {x: 0, y: 0, z: -360.0303}
        outSlope: {x: 0, y: 0, z: 0}
        tangentMode: 1
        weightedMode: 0
        inWeight: {x: 0.3333333, y: 0.3333333, z: 0.3333333}
        outWeight: {x: 0.3333333, y: 0.3333333, z: 0.3333333}
      m_PreInfinity: 2
      m_PostInfinity: 2
      m_RotationOrder: 4
    path: path_42129444
  m_PositionCurves: []
  m_ScaleCurves:
  - curve:
      serializedVersion: 2
      m_Curve:
      - serializedVersion: 3
        time: 0
        value: {x: 0.2, y: 0.2, z: 1}
        inSlope: {x: 0, y: 0, z: 0}
        outSlope: {x: 0.2, y: 0.2, z: 0}
        tangentMode: 1
        weightedMode: 0
        inWeight: {x: 0.3333333, y: 0.3333333, z: 0.3333333}
        outWeight: {x: 0.3333333, y: 0.3333333, z: 0.3333333}
      - serializedVersion: 3
        time: 0.5
        value: {x: 0.3, y: 0.3, z: 1}
        inSlope: {x: 0, y: 0, z: 0}
        outSlope: {x: 0, y: 0, z: 0}
        tangentMode: 1
        weightedMode: 0
        inWeight: {x: 0.3333333, y: 0.3333333, z: 0.3333333}
        outWeight: {x: 0.3333333, y: 0.3333333, z: 0.3333333}
      - serializedVersion: 3
        time: 1
        value: {x: 0.2, y: 0.2, z: 1}
        inSlope: {x: -0.2, y: -0.2, z: 0}
        outSlope: {x: 0, y: 0, z: 0}
        tangentMode: 1
        weightedMode: 0
        inWeight: {x: 0.3333333, y: 0.3333333, z: 0.3333333}
        outWeight: {x: 0.3333333, y: 0.3333333, z: 0.3333333}
      m_PreInfinity: 2
      m_PostInfinity: 2
      m_RotationOrder: 4
    path: path_3544212333
  - curve:
      serializedVersion: 2
      m_Curve:
      - serializedVersion: 3
        time: 0
        value: {x: 0.2, y: 0.2, z: 1}
        inSlope: {x: 0, y: 0, z: 0}
        outSlope: {x: 0.2, y: 0.2, z: 0}
        tangentMode: 1
        weightedMode: 0
        inWeight: {x: 0.3333333, y: 0.3333333, z: 0.3333333}
        outWeight: {x: 0.3333333, y: 0.3333333, z: 0.3333333}
      - serializedVersion: 3
        time: 0.5
        value: {x: 0.3, y: 0.3, z: 1}
        inSlope: {x: 0, y: 0, z: 0}
        outSlope: {x: 0, y: 0, z: 0}
        tangentMode: 1
        weightedMode: 0
        inWeight: {x: 0.3333333, y: 0.3333333, z: 0.3333333}
        outWeight: {x: 0.3333333, y: 0.3333333, z: 0.3333333}
      - serializedVersion: 3
        time: 1
        value: {x: 0.2, y: 0.2, z: 1}
        inSlope: {x: -0.2, y: -0.2, z: 0}
        outSlope: {x: 0, y: 0, z: 0}
        tangentMode: 1
        weightedMode: 0
        inWeight: {x: 0.3333333, y: 0.3333333, z: 0.3333333}
        outWeight: {x: 0.3333333, y: 0.3333333, z: 0.3333333}
      m_PreInfinity: 2
      m_PostInfinity: 2
      m_RotationOrder: 4
    path: path_3394982444
  - curve:
      serializedVersion: 2
      m_Curve:
      - serializedVersion: 3
        time: 0
        value: {x: 0.2, y: 0.2, z: 1}
        inSlope: {x: 0, y: 0, z: 0}
        outSlope: {x: 0.2, y: 0.2, z: 0}
        tangentMode: 1
        weightedMode: 0
        inWeight: {x: 0.3333333, y: 0.3333333, z: 0.3333333}
        outWeight: {x: 0.3333333, y: 0.3333333, z: 0.3333333}
      - serializedVersion: 3
        time: 0.5
        value: {x: 0.3, y: 0.3, z: 1}
        inSlope: {x: 0, y: 0, z: 0}
        outSlope: {x: 0, y: 0, z: 0}
        tangentMode: 1
        weightedMode: 0
        inWeight: {x: 0.3333333, y: 0.3333333, z: 0.3333333}
        outWeight: {x: 0.3333333, y: 0.3333333, z: 0.3333333}
      - serializedVersion: 3
        time: 1
        value: {x: 0.2, y: 0.2, z: 1}
        inSlope: {x: -0.2, y: -0.2, z: 0}
        outSlope: {x: 0, y: 0, z: 0}
        tangentMode: 1
        weightedMode: 0
        inWeight: {x: 0.3333333, y: 0.3333333, z: 0.3333333}
        outWeight: {x: 0.3333333, y: 0.3333333, z: 0.3333333}
      m_PreInfinity: 2
      m_PostInfinity: 2
      m_RotationOrder: 4
    path: path_966977864
  - curve:
      serializedVersion: 2
      m_Curve:
      - serializedVersion: 3
        time: 0
        value: {x: 0.2, y: 0.2, z: 1}
        inSlope: {x: 0, y: 0, z: 0}
        outSlope: {x: 0.2, y: 0.2, z: 0}
        tangentMode: 1
        weightedMode: 0
        inWeight: {x: 0.3333333, y: 0.3333333, z: 0.3333333}
        outWeight: {x: 0.3333333, y: 0.3333333, z: 0.3333333}
      - serializedVersion: 3
        time: 0.5
        value: {x: 0.3, y: 0.3, z: 1}
        inSlope: {x: 0, y: 0, z: 0}
        outSlope: {x: 0, y: 0, z: 0}
        tangentMode: 1
        weightedMode: 0
        inWeight: {x: 0.3333333, y: 0.3333333, z: 0.3333333}
        outWeight: {x: 0.3333333, y: 0.3333333, z: 0.3333333}
      - serializedVersion: 3
        time: 1
        value: {x: 0.2, y: 0.2, z: 1}
        inSlope: {x: -0.2, y: -0.2, z: 0}
        outSlope: {x: 0, y: 0, z: 0}
        tangentMode: 1
        weightedMode: 0
        inWeight: {x: 0.3333333, y: 0.3333333, z: 0.3333333}
        outWeight: {x: 0.3333333, y: 0.3333333, z: 0.3333333}
      m_PreInfinity: 2
      m_PostInfinity: 2
      m_RotationOrder: 4
    path: path_549050377
  - curve:
      serializedVersion: 2
      m_Curve:
      - serializedVersion: 3
        time: 0
        value: {x: 0.2, y: 0.2, z: 1}
        inSlope: {x: 0, y: 0, z: 0}
        outSlope: {x: 0.2, y: 0.2, z: 0}
        tangentMode: 1
        weightedMode: 0
        inWeight: {x: 0.3333333, y: 0.3333333, z: 0.3333333}
        outWeight: {x: 0.3333333, y: 0.3333333, z: 0.3333333}
      - serializedVersion: 3
        time: 0.5
        value: {x: 0.3, y: 0.3, z: 1}
        inSlope: {x: 0, y: 0, z: 0}
        outSlope: {x: 0, y: 0, z: 0}
        tangentMode: 1
        weightedMode: 0
        inWeight: {x: 0.3333333, y: 0.3333333, z: 0.3333333}
        outWeight: {x: 0.3333333, y: 0.3333333, z: 0.3333333}
      - serializedVersion: 3
        time: 1
        value: {x: 0.2, y: 0.2, z: 1}
        inSlope: {x: -0.2, y: -0.2, z: 0}
        outSlope: {x: 0, y: 0, z: 0}
        tangentMode: 1
        weightedMode: 0
        inWeight: {x: 0.3333333, y: 0.3333333, z: 0.3333333}
        outWeight: {x: 0.3333333, y: 0.3333333, z: 0.3333333}
      m_PreInfinity: 2
      m_PostInfinity: 2
      m_RotationOrder: 4
    path: path_194284490
  - curve:
      serializedVersion: 2
      m_Curve:
      - serializedVersion: 3
        time: 0
        value: {x: 0.2, y: 0.2, z: 1}
        inSlope: {x: 0, y: 0, z: 0}
        outSlope: {x: 0.2, y: 0.2, z: 0}
        tangentMode: 1
        weightedMode: 0
        inWeight: {x: 0.3333333, y: 0.3333333, z: 0.3333333}
        outWeight: {x: 0.3333333, y: 0.3333333, z: 0.3333333}
      - serializedVersion: 3
        time: 0.5
        value: {x: 0.3, y: 0.3, z: 1}
        inSlope: {x: 0, y: 0, z: 0}
        outSlope: {x: 0, y: 0, z: 0}
        tangentMode: 1
        weightedMode: 0
        inWeight: {x: 0.3333333, y: 0.3333333, z: 0.3333333}
        outWeight: {x: 0.3333333, y: 0.3333333, z: 0.3333333}
      - serializedVersion: 3
        time: 1
        value: {x: 0.2, y: 0.2, z: 1}
        inSlope: {x: -0.2, y: -0.2, z: 0}
        outSlope: {x: 0, y: 0, z: 0}
        tangentMode: 1
        weightedMode: 0
        inWeight: {x: 0.3333333, y: 0.3333333, z: 0.3333333}
        outWeight: {x: 0.3333333, y: 0.3333333, z: 0.3333333}
      m_PreInfinity: 2
      m_PostInfinity: 2
      m_RotationOrder: 4
    path: path_311409291
  - curve:
      serializedVersion: 2
      m_Curve:
      - serializedVersion: 3
        time: 0
        value: {x: 0.2, y: 0.2, z: 1}
        inSlope: {x: 0, y: 0, z: 0}
        outSlope: {x: 0.2, y: 0.2, z: 0}
        tangentMode: 1
        weightedMode: 0
        inWeight: {x: 0.3333333, y: 0.3333333, z: 0.3333333}
        outWeight: {x: 0.3333333, y: 0.3333333, z: 0.3333333}
      - serializedVersion: 3
        time: 0.5
        value: {x: 0.3, y: 0.3, z: 1}
        inSlope: {x: 0, y: 0, z: 0}
        outSlope: {x: 0, y: 0, z: 0}
        tangentMode: 1
        weightedMode: 0
        inWeight: {x: 0.3333333, y: 0.3333333, z: 0.3333333}
        outWeight: {x: 0.3333333, y: 0.3333333, z: 0.3333333}
      - serializedVersion: 3
        time: 1
        value: {x: 0.2, y: 0.2, z: 1}
        inSlope: {x: -0.2, y: -0.2, z: 0}
        outSlope: {x: 0, y: 0, z: 0}
        tangentMode: 1
        weightedMode: 0
        inWeight: {x: 0.3333333, y: 0.3333333, z: 0.3333333}
        outWeight: {x: 0.3333333, y: 0.3333333, z: 0.3333333}
      m_PreInfinity: 2
      m_PostInfinity: 2
      m_RotationOrder: 4
    path: path_1573792844
  - curve:
      serializedVersion: 2
      m_Curve:
      - serializedVersion: 3
        time: 0
        value: {x: 0.2, y: 0.2, z: 1}
        inSlope: {x: 0, y: 0, z: 0}
        outSlope: {x: 0.2, y: 0.2, z: 0}
        tangentMode: 1
        weightedMode: 0
        inWeight: {x: 0.3333333, y: 0.3333333, z: 0.3333333}
        outWeight: {x: 0.3333333, y: 0.3333333, z: 0.3333333}
      - serializedVersion: 3
        time: 0.5
        value: {x: 0.3, y: 0.3, z: 1}
        inSlope: {x: 0, y: 0, z: 0}
        outSlope: {x: 0, y: 0, z: 0}
        tangentMode: 1
        weightedMode: 0
        inWeight: {x: 0.3333333, y: 0.3333333, z: 0.3333333}
        outWeight: {x: 0.3333333, y: 0.3333333, z: 0.3333333}
      - serializedVersion: 3
        time: 1
        value: {x: 0.2, y: 0.2, z: 1}
        inSlope: {x: -0.2, y: -0.2, z: 0}
        outSlope: {x: 0, y: 0, z: 0}
        tangentMode: 1
        weightedMode: 0
        inWeight: {x: 0.3333333, y: 0.3333333, z: 0.3333333}
        outWeight: {x: 0.3333333, y: 0.3333333, z: 0.3333333}
      m_PreInfinity: 2
      m_PostInfinity: 2
      m_RotationOrder: 4
    path: path_1154817293
  - curve:
      serializedVersion: 2
      m_Curve:
      - serializedVersion: 3
        time: 0
        value: {x: 0.2, y: 0.2, z: 1}
        inSlope: {x: 0, y: 0, z: 0}
        outSlope: {x: 0.2, y: 0.2, z: 0}
        tangentMode: 1
        weightedMode: 0
        inWeight: {x: 0.3333333, y: 0.3333333, z: 0.3333333}
        outWeight: {x: 0.3333333, y: 0.3333333, z: 0.3333333}
      - serializedVersion: 3
        time: 0.5
        value: {x: 0.3, y: 0.3, z: 1}
        inSlope: {x: 0, y: 0, z: 0}
        outSlope: {x: 0, y: 0, z: 0}
        tangentMode: 1
        weightedMode: 0
        inWeight: {x: 0.3333333, y: 0.3333333, z: 0.3333333}
        outWeight: {x: 0.3333333, y: 0.3333333, z: 0.3333333}
      - serializedVersion: 3
        time: 1
        value: {x: 0.2, y: 0.2, z: 1}
        inSlope: {x: -0.2, y: -0.2, z: 0}
        outSlope: {x: 0, y: 0, z: 0}
        tangentMode: 1
        weightedMode: 0
        inWeight: {x: 0.3333333, y: 0.3333333, z: 0.3333333}
        outWeight: {x: 0.3333333, y: 0.3333333, z: 0.3333333}
      m_PreInfinity: 2
      m_PostInfinity: 2
      m_RotationOrder: 4
    path: path_1878544078
  - curve:
      serializedVersion: 2
      m_Curve:
      - serializedVersion: 3
        time: 0
        value: {x: 0.2, y: 0.2, z: 1}
        inSlope: {x: 0, y: 0, z: 0}
        outSlope: {x: 0.2, y: 0.2, z: 0}
        tangentMode: 1
        weightedMode: 0
        inWeight: {x: 0.3333333, y: 0.3333333, z: 0.3333333}
        outWeight: {x: 0.3333333, y: 0.3333333, z: 0.3333333}
      - serializedVersion: 3
        time: 0.5
        value: {x: 0.3, y: 0.3, z: 1}
        inSlope: {x: 0, y: 0, z: 0}
        outSlope: {x: 0, y: 0, z: 0}
        tangentMode: 1
        weightedMode: 0
        inWeight: {x: 0.3333333, y: 0.3333333, z: 0.3333333}
        outWeight: {x: 0.3333333, y: 0.3333333, z: 0.3333333}
      - serializedVersion: 3
        time: 1
        value: {x: 0.2, y: 0.2, z: 1}
        inSlope: {x: -0.2, y: -0.2, z: 0}
        outSlope: {x: 0, y: 0, z: 0}
        tangentMode: 1
        weightedMode: 0
        inWeight: {x: 0.3333333, y: 0.3333333, z: 0.3333333}
        outWeight: {x: 0.3333333, y: 0.3333333, z: 0.3333333}
      m_PreInfinity: 2
      m_PostInfinity: 2
      m_RotationOrder: 4
    path: path_1994620815
  - curve:
      serializedVersion: 2
      m_Curve:
      - serializedVersion: 3
        time: 0
        value: {x: 0.2, y: 0.2, z: 1}
        inSlope: {x: 0, y: 0, z: 0}
        outSlope: {x: 0.2, y: 0.2, z: 0}
        tangentMode: 1
        weightedMode: 0
        inWeight: {x: 0.3333333, y: 0.3333333, z: 0.3333333}
        outWeight: {x: 0.3333333, y: 0.3333333, z: 0.3333333}
      - serializedVersion: 3
        time: 0.5
        value: {x: 0.3, y: 0.3, z: 1}
        inSlope: {x: 0, y: 0, z: 0}
        outSlope: {x: 0, y: 0, z: 0}
        tangentMode: 1
        weightedMode: 0
        inWeight: {x: 0.3333333, y: 0.3333333, z: 0.3333333}
        outWeight: {x: 0.3333333, y: 0.3333333, z: 0.3333333}
      - serializedVersion: 3
        time: 1
        value: {x: 0.2, y: 0.2, z: 1}
        inSlope: {x: -0.2, y: -0.2, z: 0}
        outSlope: {x: 0, y: 0, z: 0}
        tangentMode: 1
        weightedMode: 0
        inWeight: {x: 0.3333333, y: 0.3333333, z: 0.3333333}
        outWeight: {x: 0.3333333, y: 0.3333333, z: 0.3333333}
      m_PreInfinity: 2
      m_PostInfinity: 2
      m_RotationOrder: 4
    path: path_4051395392
  - curve:
      serializedVersion: 2
      m_Curve:
      - serializedVersion: 3
        time: 0
        value: {x: 0.2, y: 0.2, z: 1}
        inSlope: {x: 0, y: 0, z: 0}
        outSlope: {x: 0.2, y: 0.2, z: 0}
        tangentMode: 1
        weightedMode: 0
        inWeight: {x: 0.3333333, y: 0.3333333, z: 0.3333333}
        outWeight: {x: 0.3333333, y: 0.3333333, z: 0.3333333}
      - serializedVersion: 3
        time: 0.5
        value: {x: 0.3, y: 0.3, z: 1}
        inSlope: {x: 0, y: 0, z: 0}
        outSlope: {x: 0, y: 0, z: 0}
        tangentMode: 1
        weightedMode: 0
        inWeight: {x: 0.3333333, y: 0.3333333, z: 0.3333333}
        outWeight: {x: 0.3333333, y: 0.3333333, z: 0.3333333}
      - serializedVersion: 3
        time: 1
        value: {x: 0.2, y: 0.2, z: 1}
        inSlope: {x: -0.2, y: -0.2, z: 0}
        outSlope: {x: 0, y: 0, z: 0}
        tangentMode: 1
        weightedMode: 0
        inWeight: {x: 0.3333333, y: 0.3333333, z: 0.3333333}
        outWeight: {x: 0.3333333, y: 0.3333333, z: 0.3333333}
      m_PreInfinity: 2
      m_PostInfinity: 2
      m_RotationOrder: 4
    path: path_3898626561
  - curve:
      serializedVersion: 2
      m_Curve:
      - serializedVersion: 3
        time: 0
        value: {x: 0.2, y: 0.2, z: 1}
        inSlope: {x: 0, y: 0, z: 0}
        outSlope: {x: 0.2, y: 0.2, z: 0}
        tangentMode: 1
        weightedMode: 0
        inWeight: {x: 0.3333333, y: 0.3333333, z: 0.3333333}
        outWeight: {x: 0.3333333, y: 0.3333333, z: 0.3333333}
      - serializedVersion: 3
        time: 0.5
        value: {x: 0.3, y: 0.3, z: 1}
        inSlope: {x: 0, y: 0, z: 0}
        outSlope: {x: 0, y: 0, z: 0}
        tangentMode: 1
        weightedMode: 0
        inWeight: {x: 0.3333333, y: 0.3333333, z: 0.3333333}
        outWeight: {x: 0.3333333, y: 0.3333333, z: 0.3333333}
      - serializedVersion: 3
        time: 1
        value: {x: 0.2, y: 0.2, z: 1}
        inSlope: {x: -0.2, y: -0.2, z: 0}
        outSlope: {x: 0, y: 0, z: 0}
        tangentMode: 1
        weightedMode: 0
        inWeight: {x: 0.3333333, y: 0.3333333, z: 0.3333333}
        outWeight: {x: 0.3333333, y: 0.3333333, z: 0.3333333}
      m_PreInfinity: 2
      m_PostInfinity: 2
      m_RotationOrder: 4
    path: path_3782607343
  - curve:
      serializedVersion: 2
      m_Curve:
      - serializedVersion: 3
        time: 0
        value: {x: 0.2, y: 0.2, z: 1}
        inSlope: {x: 0, y: 0, z: 0}
        outSlope: {x: 0.2, y: 0.2, z: 0}
        tangentMode: 1
        weightedMode: 0
        inWeight: {x: 0.3333333, y: 0.3333333, z: 0.3333333}
        outWeight: {x: 0.3333333, y: 0.3333333, z: 0.3333333}
      - serializedVersion: 3
        time: 0.5
        value: {x: 0.3, y: 0.3, z: 1}
        inSlope: {x: 0, y: 0, z: 0}
        outSlope: {x: 0, y: 0, z: 0}
        tangentMode: 1
        weightedMode: 0
        inWeight: {x: 0.3333333, y: 0.3333333, z: 0.3333333}
        outWeight: {x: 0.3333333, y: 0.3333333, z: 0.3333333}
      - serializedVersion: 3
        time: 1
        value: {x: 0.2, y: 0.2, z: 1}
        inSlope: {x: -0.2, y: -0.2, z: 0}
        outSlope: {x: 0, y: 0, z: 0}
        tangentMode: 1
        weightedMode: 0
        inWeight: {x: 0.3333333, y: 0.3333333, z: 0.3333333}
        outWeight: {x: 0.3333333, y: 0.3333333, z: 0.3333333}
      m_PreInfinity: 2
      m_PostInfinity: 2
      m_RotationOrder: 4
    path: path_1004820241
  - curve:
      serializedVersion: 2
      m_Curve:
      - serializedVersion: 3
        time: 0
        value: {x: 0.2, y: 0.2, z: 1}
        inSlope: {x: 0, y: 0, z: 0}
        outSlope: {x: 0.2, y: 0.2, z: 0}
        tangentMode: 1
        weightedMode: 0
        inWeight: {x: 0.3333333, y: 0.3333333, z: 0.3333333}
        outWeight: {x: 0.3333333, y: 0.3333333, z: 0.3333333}
      - serializedVersion: 3
        time: 0.5
        value: {x: 0.3, y: 0.3, z: 1}
        inSlope: {x: 0, y: 0, z: 0}
        outSlope: {x: 0, y: 0, z: 0}
        tangentMode: 1
        weightedMode: 0
        inWeight: {x: 0.3333333, y: 0.3333333, z: 0.3333333}
        outWeight: {x: 0.3333333, y: 0.3333333, z: 0.3333333}
      - serializedVersion: 3
        time: 1
        value: {x: 0.2, y: 0.2, z: 1}
        inSlope: {x: -0.2, y: -0.2, z: 0}
        outSlope: {x: 0, y: 0, z: 0}
        tangentMode: 1
        weightedMode: 0
        inWeight: {x: 0.3333333, y: 0.3333333, z: 0.3333333}
        outWeight: {x: 0.3333333, y: 0.3333333, z: 0.3333333}
      m_PreInfinity: 2
      m_PostInfinity: 2
      m_RotationOrder: 4
    path: path_587163216
  - curve:
      serializedVersion: 2
      m_Curve:
      - serializedVersion: 3
        time: 0
        value: {x: 0.2, y: 0.2, z: 1}
        inSlope: {x: 0, y: 0, z: 0}
        outSlope: {x: 0.2, y: 0.2, z: 0}
        tangentMode: 1
        weightedMode: 0
        inWeight: {x: 0.3333333, y: 0.3333333, z: 0.3333333}
        outWeight: {x: 0.3333333, y: 0.3333333, z: 0.3333333}
      - serializedVersion: 3
        time: 0.5
        value: {x: 0.3, y: 0.3, z: 1}
        inSlope: {x: 0, y: 0, z: 0}
        outSlope: {x: 0, y: 0, z: 0}
        tangentMode: 1
        weightedMode: 0
        inWeight: {x: 0.3333333, y: 0.3333333, z: 0.3333333}
        outWeight: {x: 0.3333333, y: 0.3333333, z: 0.3333333}
      - serializedVersion: 3
        time: 1
        value: {x: 0.2, y: 0.2, z: 1}
        inSlope: {x: -0.2, y: -0.2, z: 0}
        outSlope: {x: 0, y: 0, z: 0}
        tangentMode: 1
        weightedMode: 0
        inWeight: {x: 0.3333333, y: 0.3333333, z: 0.3333333}
        outWeight: {x: 0.3333333, y: 0.3333333, z: 0.3333333}
      m_PreInfinity: 2
      m_PostInfinity: 2
      m_RotationOrder: 4
    path: path_164771219
  - curve:
      serializedVersion: 2
      m_Curve:
      - serializedVersion: 3
        time: 0
        value: {x: 0.2, y: 0.2, z: 1}
        inSlope: {x: 0, y: 0, z: 0}
        outSlope: {x: 0.2, y: 0.2, z: 0}
        tangentMode: 1
        weightedMode: 0
        inWeight: {x: 0.3333333, y: 0.3333333, z: 0.3333333}
        outWeight: {x: 0.3333333, y: 0.3333333, z: 0.3333333}
      - serializedVersion: 3
        time: 0.5
        value: {x: 0.3, y: 0.3, z: 1}
        inSlope: {x: 0, y: 0, z: 0}
        outSlope: {x: 0, y: 0, z: 0}
        tangentMode: 1
        weightedMode: 0
        inWeight: {x: 0.3333333, y: 0.3333333, z: 0.3333333}
        outWeight: {x: 0.3333333, y: 0.3333333, z: 0.3333333}
      - serializedVersion: 3
        time: 1
        value: {x: 0.2, y: 0.2, z: 1}
        inSlope: {x: -0.2, y: -0.2, z: 0}
        outSlope: {x: 0, y: 0, z: 0}
        tangentMode: 1
        weightedMode: 0
        inWeight: {x: 0.3333333, y: 0.3333333, z: 0.3333333}
        outWeight: {x: 0.3333333, y: 0.3333333, z: 0.3333333}
      m_PreInfinity: 2
      m_PostInfinity: 2
      m_RotationOrder: 4
    path: path_281609426
  - curve:
      serializedVersion: 2
      m_Curve:
      - serializedVersion: 3
        time: 0
        value: {x: 0.2, y: 0.2, z: 1}
        inSlope: {x: 0, y: 0, z: 0}
        outSlope: {x: 0.2, y: 0.2, z: 0}
        tangentMode: 1
        weightedMode: 0
        inWeight: {x: 0.3333333, y: 0.3333333, z: 0.3333333}
        outWeight: {x: 0.3333333, y: 0.3333333, z: 0.3333333}
      - serializedVersion: 3
        time: 0.5
        value: {x: 0.3, y: 0.3, z: 1}
        inSlope: {x: 0, y: 0, z: 0}
        outSlope: {x: 0, y: 0, z: 0}
        tangentMode: 1
        weightedMode: 0
        inWeight: {x: 0.3333333, y: 0.3333333, z: 0.3333333}
        outWeight: {x: 0.3333333, y: 0.3333333, z: 0.3333333}
      - serializedVersion: 3
        time: 1
        value: {x: 0.2, y: 0.2, z: 1}
        inSlope: {x: -0.2, y: -0.2, z: 0}
        outSlope: {x: 0, y: 0, z: 0}
        tangentMode: 1
        weightedMode: 0
        inWeight: {x: 0.3333333, y: 0.3333333, z: 0.3333333}
        outWeight: {x: 0.3333333, y: 0.3333333, z: 0.3333333}
      m_PreInfinity: 2
      m_PostInfinity: 2
      m_RotationOrder: 4
    path: path_1602785813
  - curve:
      serializedVersion: 2
      m_Curve:
      - serializedVersion: 3
        time: 0
        value: {x: 0.2, y: 0.2, z: 1}
        inSlope: {x: 0, y: 0, z: 0}
        outSlope: {x: 0.2, y: 0.2, z: 0}
        tangentMode: 1
        weightedMode: 0
        inWeight: {x: 0.3333333, y: 0.3333333, z: 0.3333333}
        outWeight: {x: 0.3333333, y: 0.3333333, z: 0.3333333}
      - serializedVersion: 3
        time: 0.5
        value: {x: 0.3, y: 0.3, z: 1}
        inSlope: {x: 0, y: 0, z: 0}
        outSlope: {x: 0, y: 0, z: 0}
        tangentMode: 1
        weightedMode: 0
        inWeight: {x: 0.3333333, y: 0.3333333, z: 0.3333333}
        outWeight: {x: 0.3333333, y: 0.3333333, z: 0.3333333}
      - serializedVersion: 3
        time: 1
        value: {x: 0.2, y: 0.2, z: 1}
        inSlope: {x: -0.2, y: -0.2, z: 0}
        outSlope: {x: 0, y: 0, z: 0}
        tangentMode: 1
        weightedMode: 0
        inWeight: {x: 0.3333333, y: 0.3333333, z: 0.3333333}
        outWeight: {x: 0.3333333, y: 0.3333333, z: 0.3333333}
      m_PreInfinity: 2
      m_PostInfinity: 2
      m_RotationOrder: 4
    path: path_1184080724
  - curve:
      serializedVersion: 2
      m_Curve:
      - serializedVersion: 3
        time: 0
        value: {x: 0.2, y: 0.2, z: 1}
        inSlope: {x: 0, y: 0, z: 0}
        outSlope: {x: 0.2, y: 0.2, z: 0}
        tangentMode: 1
        weightedMode: 0
        inWeight: {x: 0.3333333, y: 0.3333333, z: 0.3333333}
        outWeight: {x: 0.3333333, y: 0.3333333, z: 0.3333333}
      - serializedVersion: 3
        time: 0.5
        value: {x: 0.3, y: 0.3, z: 1}
        inSlope: {x: 0, y: 0, z: 0}
        outSlope: {x: 0, y: 0, z: 0}
        tangentMode: 1
        weightedMode: 0
        inWeight: {x: 0.3333333, y: 0.3333333, z: 0.3333333}
        outWeight: {x: 0.3333333, y: 0.3333333, z: 0.3333333}
      - serializedVersion: 3
        time: 1
        value: {x: 0.2, y: 0.2, z: 1}
        inSlope: {x: -0.2, y: -0.2, z: 0}
        outSlope: {x: 0, y: 0, z: 0}
        tangentMode: 1
        weightedMode: 0
        inWeight: {x: 0.3333333, y: 0.3333333, z: 0.3333333}
        outWeight: {x: 0.3333333, y: 0.3333333, z: 0.3333333}
      m_PreInfinity: 2
      m_PostInfinity: 2
      m_RotationOrder: 4
    path: path_1841229975
  - curve:
      serializedVersion: 2
      m_Curve:
      - serializedVersion: 3
        time: 0
        value: {x: 0.2, y: 0.2, z: 1}
        inSlope: {x: 0, y: 0, z: 0}
        outSlope: {x: 0.2, y: 0.2, z: 0}
        tangentMode: 1
        weightedMode: 0
        inWeight: {x: 0.3333333, y: 0.3333333, z: 0.3333333}
        outWeight: {x: 0.3333333, y: 0.3333333, z: 0.3333333}
      - serializedVersion: 3
        time: 0.5
        value: {x: 0.3, y: 0.3, z: 1}
        inSlope: {x: 0, y: 0, z: 0}
        outSlope: {x: 0, y: 0, z: 0}
        tangentMode: 1
        weightedMode: 0
        inWeight: {x: 0.3333333, y: 0.3333333, z: 0.3333333}
        outWeight: {x: 0.3333333, y: 0.3333333, z: 0.3333333}
      - serializedVersion: 3
        time: 1
        value: {x: 0.2, y: 0.2, z: 1}
        inSlope: {x: -0.2, y: -0.2, z: 0}
        outSlope: {x: 0, y: 0, z: 0}
        tangentMode: 1
        weightedMode: 0
        inWeight: {x: 0.3333333, y: 0.3333333, z: 0.3333333}
        outWeight: {x: 0.3333333, y: 0.3333333, z: 0.3333333}
      m_PreInfinity: 2
      m_PostInfinity: 2
      m_RotationOrder: 4
    path: path_1957020118
  - curve:
      serializedVersion: 2
      m_Curve:
      - serializedVersion: 3
        time: 0
        value: {x: 0.2, y: 0.2, z: 1}
        inSlope: {x: 0, y: 0, z: 0}
        outSlope: {x: 0.2, y: 0.2, z: 0}
        tangentMode: 1
        weightedMode: 0
        inWeight: {x: 0.3333333, y: 0.3333333, z: 0.3333333}
        outWeight: {x: 0.3333333, y: 0.3333333, z: 0.3333333}
      - serializedVersion: 3
        time: 0.5
        value: {x: 0.3, y: 0.3, z: 1}
        inSlope: {x: 0, y: 0, z: 0}
        outSlope: {x: 0, y: 0, z: 0}
        tangentMode: 1
        weightedMode: 0
        inWeight: {x: 0.3333333, y: 0.3333333, z: 0.3333333}
        outWeight: {x: 0.3333333, y: 0.3333333, z: 0.3333333}
      - serializedVersion: 3
        time: 1
        value: {x: 0.2, y: 0.2, z: 1}
        inSlope: {x: -0.2, y: -0.2, z: 0}
        outSlope: {x: 0, y: 0, z: 0}
        tangentMode: 1
        weightedMode: 0
        inWeight: {x: 0.3333333, y: 0.3333333, z: 0.3333333}
        outWeight: {x: 0.3333333, y: 0.3333333, z: 0.3333333}
      m_PreInfinity: 2
      m_PostInfinity: 2
      m_RotationOrder: 4
    path: path_4080917785
  - curve:
      serializedVersion: 2
      m_Curve:
      - serializedVersion: 3
        time: 0
        value: {x: 0.2, y: 0.2, z: 1}
        inSlope: {x: 0, y: 0, z: 0}
        outSlope: {x: 0.2, y: 0.2, z: 0}
        tangentMode: 1
        weightedMode: 0
        inWeight: {x: 0.3333333, y: 0.3333333, z: 0.3333333}
        outWeight: {x: 0.3333333, y: 0.3333333, z: 0.3333333}
      - serializedVersion: 3
        time: 0.5
        value: {x: 0.3, y: 0.3, z: 1}
        inSlope: {x: 0, y: 0, z: 0}
        outSlope: {x: 0, y: 0, z: 0}
        tangentMode: 1
        weightedMode: 0
        inWeight: {x: 0.3333333, y: 0.3333333, z: 0.3333333}
        outWeight: {x: 0.3333333, y: 0.3333333, z: 0.3333333}
      - serializedVersion: 3
        time: 1
        value: {x: 0.2, y: 0.2, z: 1}
        inSlope: {x: -0.2, y: -0.2, z: 0}
        outSlope: {x: 0, y: 0, z: 0}
        tangentMode: 1
        weightedMode: 0
        inWeight: {x: 0.3333333, y: 0.3333333, z: 0.3333333}
        outWeight: {x: 0.3333333, y: 0.3333333, z: 0.3333333}
      m_PreInfinity: 2
      m_PostInfinity: 2
      m_RotationOrder: 4
    path: path_3928419416
  - curve:
      serializedVersion: 2
      m_Curve:
      - serializedVersion: 3
        time: 0
        value: {x: 0.2, y: 0.2, z: 1}
        inSlope: {x: 0, y: 0, z: 0}
        outSlope: {x: 0.2, y: 0.2, z: 0}
        tangentMode: 1
        weightedMode: 0
        inWeight: {x: 0.3333333, y: 0.3333333, z: 0.3333333}
        outWeight: {x: 0.3333333, y: 0.3333333, z: 0.3333333}
      - serializedVersion: 3
        time: 0.5
        value: {x: 0.3, y: 0.3, z: 1}
        inSlope: {x: 0, y: 0, z: 0}
        outSlope: {x: 0, y: 0, z: 0}
        tangentMode: 1
        weightedMode: 0
        inWeight: {x: 0.3333333, y: 0.3333333, z: 0.3333333}
        outWeight: {x: 0.3333333, y: 0.3333333, z: 0.3333333}
      - serializedVersion: 3
        time: 1
        value: {x: 0.2, y: 0.2, z: 1}
        inSlope: {x: -0.2, y: -0.2, z: 0}
        outSlope: {x: 0, y: 0, z: 0}
        tangentMode: 1
        weightedMode: 0
        inWeight: {x: 0.3333333, y: 0.3333333, z: 0.3333333}
        outWeight: {x: 0.3333333, y: 0.3333333, z: 0.3333333}
      m_PreInfinity: 2
      m_PostInfinity: 2
      m_RotationOrder: 4
    path: path_4167905454
  - curve:
      serializedVersion: 2
      m_Curve:
      - serializedVersion: 3
        time: 0
        value: {x: 0.2, y: 0.2, z: 1}
        inSlope: {x: 0, y: 0, z: 0}
        outSlope: {x: 0.2, y: 0.2, z: 0}
        tangentMode: 1
        weightedMode: 0
        inWeight: {x: 0.3333333, y: 0.3333333, z: 0.3333333}
        outWeight: {x: 0.3333333, y: 0.3333333, z: 0.3333333}
      - serializedVersion: 3
        time: 0.5
        value: {x: 0.3, y: 0.3, z: 1}
        inSlope: {x: 0, y: 0, z: 0}
        outSlope: {x: 0, y: 0, z: 0}
        tangentMode: 1
        weightedMode: 0
        inWeight: {x: 0.3333333, y: 0.3333333, z: 0.3333333}
        outWeight: {x: 0.3333333, y: 0.3333333, z: 0.3333333}
      - serializedVersion: 3
        time: 1
        value: {x: 0.2, y: 0.2, z: 1}
        inSlope: {x: -0.2, y: -0.2, z: 0}
        outSlope: {x: 0, y: 0, z: 0}
        tangentMode: 1
        weightedMode: 0
        inWeight: {x: 0.3333333, y: 0.3333333, z: 0.3333333}
        outWeight: {x: 0.3333333, y: 0.3333333, z: 0.3333333}
      m_PreInfinity: 2
      m_PostInfinity: 2
      m_RotationOrder: 4
    path: path_975584550
  - curve:
      serializedVersion: 2
      m_Curve:
      - serializedVersion: 3
        time: 0
        value: {x: 0.2, y: 0.2, z: 1}
        inSlope: {x: 0, y: 0, z: 0}
        outSlope: {x: 0.2, y: 0.2, z: 0}
        tangentMode: 1
        weightedMode: 0
        inWeight: {x: 0.3333333, y: 0.3333333, z: 0.3333333}
        outWeight: {x: 0.3333333, y: 0.3333333, z: 0.3333333}
      - serializedVersion: 3
        time: 0.5
        value: {x: 0.3, y: 0.3, z: 1}
        inSlope: {x: 0, y: 0, z: 0}
        outSlope: {x: 0, y: 0, z: 0}
        tangentMode: 1
        weightedMode: 0
        inWeight: {x: 0.3333333, y: 0.3333333, z: 0.3333333}
        outWeight: {x: 0.3333333, y: 0.3333333, z: 0.3333333}
      - serializedVersion: 3
        time: 1
        value: {x: 0.2, y: 0.2, z: 1}
        inSlope: {x: -0.2, y: -0.2, z: 0}
        outSlope: {x: 0, y: 0, z: 0}
        tangentMode: 1
        weightedMode: 0
        inWeight: {x: 0.3333333, y: 0.3333333, z: 0.3333333}
        outWeight: {x: 0.3333333, y: 0.3333333, z: 0.3333333}
      m_PreInfinity: 2
      m_PostInfinity: 2
      m_RotationOrder: 4
    path: path_591203431
  - curve:
      serializedVersion: 2
      m_Curve:
      - serializedVersion: 3
        time: 0
        value: {x: 0.2, y: 0.2, z: 1}
        inSlope: {x: 0, y: 0, z: 0}
        outSlope: {x: 0.2, y: 0.2, z: 0}
        tangentMode: 1
        weightedMode: 0
        inWeight: {x: 0.3333333, y: 0.3333333, z: 0.3333333}
        outWeight: {x: 0.3333333, y: 0.3333333, z: 0.3333333}
      - serializedVersion: 3
        time: 0.5
        value: {x: 0.3, y: 0.3, z: 1}
        inSlope: {x: 0, y: 0, z: 0}
        outSlope: {x: 0, y: 0, z: 0}
        tangentMode: 1
        weightedMode: 0
        inWeight: {x: 0.3333333, y: 0.3333333, z: 0.3333333}
        outWeight: {x: 0.3333333, y: 0.3333333, z: 0.3333333}
      - serializedVersion: 3
        time: 1
        value: {x: 0.2, y: 0.2, z: 1}
        inSlope: {x: -0.2, y: -0.2, z: 0}
        outSlope: {x: 0, y: 0, z: 0}
        tangentMode: 1
        weightedMode: 0
        inWeight: {x: 0.3333333, y: 0.3333333, z: 0.3333333}
        outWeight: {x: 0.3333333, y: 0.3333333, z: 0.3333333}
      m_PreInfinity: 2
      m_PostInfinity: 2
      m_RotationOrder: 4
    path: path_135290788
  - curve:
      serializedVersion: 2
      m_Curve:
      - serializedVersion: 3
        time: 0
        value: {x: 0.2, y: 0.2, z: 1}
        inSlope: {x: 0, y: 0, z: 0}
        outSlope: {x: 0.2, y: 0.2, z: 0}
        tangentMode: 1
        weightedMode: 0
        inWeight: {x: 0.3333333, y: 0.3333333, z: 0.3333333}
        outWeight: {x: 0.3333333, y: 0.3333333, z: 0.3333333}
      - serializedVersion: 3
        time: 0.5
        value: {x: 0.3, y: 0.3, z: 1}
        inSlope: {x: 0, y: 0, z: 0}
        outSlope: {x: 0, y: 0, z: 0}
        tangentMode: 1
        weightedMode: 0
        inWeight: {x: 0.3333333, y: 0.3333333, z: 0.3333333}
        outWeight: {x: 0.3333333, y: 0.3333333, z: 0.3333333}
      - serializedVersion: 3
        time: 1
        value: {x: 0.2, y: 0.2, z: 1}
        inSlope: {x: -0.2, y: -0.2, z: 0}
        outSlope: {x: 0, y: 0, z: 0}
        tangentMode: 1
        weightedMode: 0
        inWeight: {x: 0.3333333, y: 0.3333333, z: 0.3333333}
        outWeight: {x: 0.3333333, y: 0.3333333, z: 0.3333333}
      m_PreInfinity: 2
      m_PostInfinity: 2
      m_RotationOrder: 4
    path: path_285961957
  - curve:
      serializedVersion: 2
      m_Curve:
      - serializedVersion: 3
        time: 0
        value: {x: 0.2, y: 0.2, z: 1}
        inSlope: {x: 0, y: 0, z: 0}
        outSlope: {x: 0.2, y: 0.2, z: 0}
        tangentMode: 1
        weightedMode: 0
        inWeight: {x: 0.3333333, y: 0.3333333, z: 0.3333333}
        outWeight: {x: 0.3333333, y: 0.3333333, z: 0.3333333}
      - serializedVersion: 3
        time: 0.5
        value: {x: 0.3, y: 0.3, z: 1}
        inSlope: {x: 0, y: 0, z: 0}
        outSlope: {x: 0, y: 0, z: 0}
        tangentMode: 1
        weightedMode: 0
        inWeight: {x: 0.3333333, y: 0.3333333, z: 0.3333333}
        outWeight: {x: 0.3333333, y: 0.3333333, z: 0.3333333}
      - serializedVersion: 3
        time: 1
        value: {x: 0.2, y: 0.2, z: 1}
        inSlope: {x: -0.2, y: -0.2, z: 0}
        outSlope: {x: 0, y: 0, z: 0}
        tangentMode: 1
        weightedMode: 0
        inWeight: {x: 0.3333333, y: 0.3333333, z: 0.3333333}
        outWeight: {x: 0.3333333, y: 0.3333333, z: 0.3333333}
      m_PreInfinity: 2
      m_PostInfinity: 2
      m_RotationOrder: 4
    path: path_1581971490
  - curve:
      serializedVersion: 2
      m_Curve:
      - serializedVersion: 3
        time: 0
        value: {x: 0.2, y: 0.2, z: 1}
        inSlope: {x: 0, y: 0, z: 0}
        outSlope: {x: 0.2, y: 0.2, z: 0}
        tangentMode: 1
        weightedMode: 0
        inWeight: {x: 0.3333333, y: 0.3333333, z: 0.3333333}
        outWeight: {x: 0.3333333, y: 0.3333333, z: 0.3333333}
      - serializedVersion: 3
        time: 0.5
        value: {x: 0.3, y: 0.3, z: 1}
        inSlope: {x: 0, y: 0, z: 0}
        outSlope: {x: 0, y: 0, z: 0}
        tangentMode: 1
        weightedMode: 0
        inWeight: {x: 0.3333333, y: 0.3333333, z: 0.3333333}
        outWeight: {x: 0.3333333, y: 0.3333333, z: 0.3333333}
      - serializedVersion: 3
        time: 1
        value: {x: 0.2, y: 0.2, z: 1}
        inSlope: {x: -0.2, y: -0.2, z: 0}
        outSlope: {x: 0, y: 0, z: 0}
        tangentMode: 1
        weightedMode: 0
        inWeight: {x: 0.3333333, y: 0.3333333, z: 0.3333333}
        outWeight: {x: 0.3333333, y: 0.3333333, z: 0.3333333}
      m_PreInfinity: 2
      m_PostInfinity: 2
      m_RotationOrder: 4
    path: path_1196542307
  - curve:
      serializedVersion: 2
      m_Curve:
      - serializedVersion: 3
        time: 0
        value: {x: 0.2, y: 0.2, z: 1}
        inSlope: {x: 0, y: 0, z: 0}
        outSlope: {x: 0.2, y: 0.2, z: 0}
        tangentMode: 1
        weightedMode: 0
        inWeight: {x: 0.3333333, y: 0.3333333, z: 0.3333333}
        outWeight: {x: 0.3333333, y: 0.3333333, z: 0.3333333}
      - serializedVersion: 3
        time: 0.5
        value: {x: 0.3, y: 0.3, z: 1}
        inSlope: {x: 0, y: 0, z: 0}
        outSlope: {x: 0, y: 0, z: 0}
        tangentMode: 1
        weightedMode: 0
        inWeight: {x: 0.3333333, y: 0.3333333, z: 0.3333333}
        outWeight: {x: 0.3333333, y: 0.3333333, z: 0.3333333}
      - serializedVersion: 3
        time: 1
        value: {x: 0.2, y: 0.2, z: 1}
        inSlope: {x: -0.2, y: -0.2, z: 0}
        outSlope: {x: 0, y: 0, z: 0}
        tangentMode: 1
        weightedMode: 0
        inWeight: {x: 0.3333333, y: 0.3333333, z: 0.3333333}
        outWeight: {x: 0.3333333, y: 0.3333333, z: 0.3333333}
      m_PreInfinity: 2
      m_PostInfinity: 2
      m_RotationOrder: 4
    path: path_1820105376
  - curve:
      serializedVersion: 2
      m_Curve:
      - serializedVersion: 3
        time: 0
        value: {x: 0.2, y: 0.2, z: 1}
        inSlope: {x: 0, y: 0, z: 0}
        outSlope: {x: 0.2, y: 0.2, z: 0}
        tangentMode: 1
        weightedMode: 0
        inWeight: {x: 0.3333333, y: 0.3333333, z: 0.3333333}
        outWeight: {x: 0.3333333, y: 0.3333333, z: 0.3333333}
      - serializedVersion: 3
        time: 0.5
        value: {x: 0.3, y: 0.3, z: 1}
        inSlope: {x: 0, y: 0, z: 0}
        outSlope: {x: 0, y: 0, z: 0}
        tangentMode: 1
        weightedMode: 0
        inWeight: {x: 0.3333333, y: 0.3333333, z: 0.3333333}
        outWeight: {x: 0.3333333, y: 0.3333333, z: 0.3333333}
      - serializedVersion: 3
        time: 1
        value: {x: 0.2, y: 0.2, z: 1}
        inSlope: {x: -0.2, y: -0.2, z: 0}
        outSlope: {x: 0, y: 0, z: 0}
        tangentMode: 1
        weightedMode: 0
        inWeight: {x: 0.3333333, y: 0.3333333, z: 0.3333333}
        outWeight: {x: 0.3333333, y: 0.3333333, z: 0.3333333}
      m_PreInfinity: 2
      m_PostInfinity: 2
      m_RotationOrder: 4
    path: path_1969728481
  - curve:
      serializedVersion: 2
      m_Curve:
      - serializedVersion: 3
        time: 0
        value: {x: 0.2, y: 0.2, z: 1}
        inSlope: {x: 0, y: 0, z: 0}
        outSlope: {x: 0.2, y: 0.2, z: 0}
        tangentMode: 1
        weightedMode: 0
        inWeight: {x: 0.3333333, y: 0.3333333, z: 0.3333333}
        outWeight: {x: 0.3333333, y: 0.3333333, z: 0.3333333}
      - serializedVersion: 3
        time: 0.5
        value: {x: 0.3, y: 0.3, z: 1}
        inSlope: {x: 0, y: 0, z: 0}
        outSlope: {x: 0, y: 0, z: 0}
        tangentMode: 1
        weightedMode: 0
        inWeight: {x: 0.3333333, y: 0.3333333, z: 0.3333333}
        outWeight: {x: 0.3333333, y: 0.3333333, z: 0.3333333}
      - serializedVersion: 3
        time: 1
        value: {x: 0.2, y: 0.2, z: 1}
        inSlope: {x: -0.2, y: -0.2, z: 0}
        outSlope: {x: 0, y: 0, z: 0}
        tangentMode: 1
        weightedMode: 0
        inWeight: {x: 0.3333333, y: 0.3333333, z: 0.3333333}
        outWeight: {x: 0.3333333, y: 0.3333333, z: 0.3333333}
      m_PreInfinity: 2
      m_PostInfinity: 2
      m_RotationOrder: 4
    path: path_4076844846
  - curve:
      serializedVersion: 2
      m_Curve:
      - serializedVersion: 3
        time: 0
        value: {x: 0.2, y: 0.2, z: 1}
        inSlope: {x: 0, y: 0, z: 0}
        outSlope: {x: 0.2, y: 0.2, z: 0}
        tangentMode: 1
        weightedMode: 0
        inWeight: {x: 0.3333333, y: 0.3333333, z: 0.3333333}
        outWeight: {x: 0.3333333, y: 0.3333333, z: 0.3333333}
      - serializedVersion: 3
        time: 0.5
        value: {x: 0.3, y: 0.3, z: 1}
        inSlope: {x: 0, y: 0, z: 0}
        outSlope: {x: 0, y: 0, z: 0}
        tangentMode: 1
        weightedMode: 0
        inWeight: {x: 0.3333333, y: 0.3333333, z: 0.3333333}
        outWeight: {x: 0.3333333, y: 0.3333333, z: 0.3333333}
      - serializedVersion: 3
        time: 1
        value: {x: 0.2, y: 0.2, z: 1}
        inSlope: {x: -0.2, y: -0.2, z: 0}
        outSlope: {x: 0, y: 0, z: 0}
        tangentMode: 1
        weightedMode: 0
        inWeight: {x: 0.3333333, y: 0.3333333, z: 0.3333333}
        outWeight: {x: 0.3333333, y: 0.3333333, z: 0.3333333}
      m_PreInfinity: 2
      m_PostInfinity: 2
      m_RotationOrder: 4
    path: path_3957622383
  - curve:
      serializedVersion: 2
      m_Curve:
      - serializedVersion: 3
        time: 0
        value: {x: 0.2, y: 0.2, z: 1}
        inSlope: {x: 0, y: 0, z: 0}
        outSlope: {x: 0.2, y: 0.2, z: 0}
        tangentMode: 1
        weightedMode: 0
        inWeight: {x: 0.3333333, y: 0.3333333, z: 0.3333333}
        outWeight: {x: 0.3333333, y: 0.3333333, z: 0.3333333}
      - serializedVersion: 3
        time: 0.5
        value: {x: 0.3, y: 0.3, z: 1}
        inSlope: {x: 0, y: 0, z: 0}
        outSlope: {x: 0, y: 0, z: 0}
        tangentMode: 1
        weightedMode: 0
        inWeight: {x: 0.3333333, y: 0.3333333, z: 0.3333333}
        outWeight: {x: 0.3333333, y: 0.3333333, z: 0.3333333}
      - serializedVersion: 3
        time: 1
        value: {x: 0.2, y: 0.2, z: 1}
        inSlope: {x: -0.2, y: -0.2, z: 0}
        outSlope: {x: 0, y: 0, z: 0}
        tangentMode: 1
        weightedMode: 0
        inWeight: {x: 0.3333333, y: 0.3333333, z: 0.3333333}
        outWeight: {x: 0.3333333, y: 0.3333333, z: 0.3333333}
      m_PreInfinity: 2
      m_PostInfinity: 2
      m_RotationOrder: 4
    path: path_3073156713
  - curve:
      serializedVersion: 2
      m_Curve:
      - serializedVersion: 3
        time: 0
        value: {x: 0.2, y: 0.2, z: 1}
        inSlope: {x: 0, y: 0, z: 0}
        outSlope: {x: 0.2, y: 0.2, z: 0}
        tangentMode: 1
        weightedMode: 0
        inWeight: {x: 0.3333333, y: 0.3333333, z: 0.3333333}
        outWeight: {x: 0.3333333, y: 0.3333333, z: 0.3333333}
      - serializedVersion: 3
        time: 0.5
        value: {x: 0.3, y: 0.3, z: 1}
        inSlope: {x: 0, y: 0, z: 0}
        outSlope: {x: 0, y: 0, z: 0}
        tangentMode: 1
        weightedMode: 0
        inWeight: {x: 0.3333333, y: 0.3333333, z: 0.3333333}
        outWeight: {x: 0.3333333, y: 0.3333333, z: 0.3333333}
      - serializedVersion: 3
        time: 1
        value: {x: 0.2, y: 0.2, z: 1}
        inSlope: {x: -0.2, y: -0.2, z: 0}
        outSlope: {x: 0, y: 0, z: 0}
        tangentMode: 1
        weightedMode: 0
        inWeight: {x: 0.3333333, y: 0.3333333, z: 0.3333333}
        outWeight: {x: 0.3333333, y: 0.3333333, z: 0.3333333}
      m_PreInfinity: 2
      m_PostInfinity: 2
      m_RotationOrder: 4
    path: path_2922878760
  - curve:
      serializedVersion: 2
      m_Curve:
      - serializedVersion: 3
        time: 0
        value: {x: 0.2, y: 0.2, z: 1}
        inSlope: {x: 0, y: 0, z: 0}
        outSlope: {x: 0.2, y: 0.2, z: 0}
        tangentMode: 1
        weightedMode: 0
        inWeight: {x: 0.3333333, y: 0.3333333, z: 0.3333333}
        outWeight: {x: 0.3333333, y: 0.3333333, z: 0.3333333}
      - serializedVersion: 3
        time: 0.5
        value: {x: 0.3, y: 0.3, z: 1}
        inSlope: {x: 0, y: 0, z: 0}
        outSlope: {x: 0, y: 0, z: 0}
        tangentMode: 1
        weightedMode: 0
        inWeight: {x: 0.3333333, y: 0.3333333, z: 0.3333333}
        outWeight: {x: 0.3333333, y: 0.3333333, z: 0.3333333}
      - serializedVersion: 3
        time: 1
        value: {x: 0.2, y: 0.2, z: 1}
        inSlope: {x: -0.2, y: -0.2, z: 0}
        outSlope: {x: 0, y: 0, z: 0}
        tangentMode: 1
        weightedMode: 0
        inWeight: {x: 0.3333333, y: 0.3333333, z: 0.3333333}
        outWeight: {x: 0.3333333, y: 0.3333333, z: 0.3333333}
      m_PreInfinity: 2
      m_PostInfinity: 2
      m_RotationOrder: 4
    path: path_2233124075
  - curve:
      serializedVersion: 2
      m_Curve:
      - serializedVersion: 3
        time: 0
        value: {x: 0.2, y: 0.2, z: 1}
        inSlope: {x: 0, y: 0, z: 0}
        outSlope: {x: 0.2, y: 0.2, z: 0}
        tangentMode: 1
        weightedMode: 0
        inWeight: {x: 0.3333333, y: 0.3333333, z: 0.3333333}
        outWeight: {x: 0.3333333, y: 0.3333333, z: 0.3333333}
      - serializedVersion: 3
        time: 0.5
        value: {x: 0.3, y: 0.3, z: 1}
        inSlope: {x: 0, y: 0, z: 0}
        outSlope: {x: 0, y: 0, z: 0}
        tangentMode: 1
        weightedMode: 0
        inWeight: {x: 0.3333333, y: 0.3333333, z: 0.3333333}
        outWeight: {x: 0.3333333, y: 0.3333333, z: 0.3333333}
      - serializedVersion: 3
        time: 1
        value: {x: 0.2, y: 0.2, z: 1}
        inSlope: {x: -0.2, y: -0.2, z: 0}
        outSlope: {x: 0, y: 0, z: 0}
        tangentMode: 1
        weightedMode: 0
        inWeight: {x: 0.3333333, y: 0.3333333, z: 0.3333333}
        outWeight: {x: 0.3333333, y: 0.3333333, z: 0.3333333}
      m_PreInfinity: 2
      m_PostInfinity: 2
      m_RotationOrder: 4
    path: path_2617374122
  - curve:
      serializedVersion: 2
      m_Curve:
      - serializedVersion: 3
        time: 0
        value: {x: 0.2, y: 0.2, z: 1}
        inSlope: {x: 0, y: 0, z: 0}
        outSlope: {x: 0.2, y: 0.2, z: 0}
        tangentMode: 1
        weightedMode: 0
        inWeight: {x: 0.3333333, y: 0.3333333, z: 0.3333333}
        outWeight: {x: 0.3333333, y: 0.3333333, z: 0.3333333}
      - serializedVersion: 3
        time: 0.5
        value: {x: 0.3, y: 0.3, z: 1}
        inSlope: {x: 0, y: 0, z: 0}
        outSlope: {x: 0, y: 0, z: 0}
        tangentMode: 1
        weightedMode: 0
        inWeight: {x: 0.3333333, y: 0.3333333, z: 0.3333333}
        outWeight: {x: 0.3333333, y: 0.3333333, z: 0.3333333}
      - serializedVersion: 3
        time: 1
        value: {x: 0.2, y: 0.2, z: 1}
        inSlope: {x: -0.2, y: -0.2, z: 0}
        outSlope: {x: 0, y: 0, z: 0}
        tangentMode: 1
        weightedMode: 0
        inWeight: {x: 0.3333333, y: 0.3333333, z: 0.3333333}
        outWeight: {x: 0.3333333, y: 0.3333333, z: 0.3333333}
      m_PreInfinity: 2
      m_PostInfinity: 2
      m_RotationOrder: 4
    path: path_463071589
  - curve:
      serializedVersion: 2
      m_Curve:
      - serializedVersion: 3
        time: 0
        value: {x: 0.2, y: 0.2, z: 1}
        inSlope: {x: 0, y: 0, z: 0}
        outSlope: {x: 0.2, y: 0.2, z: 0}
        tangentMode: 1
        weightedMode: 0
        inWeight: {x: 0.3333333, y: 0.3333333, z: 0.3333333}
        outWeight: {x: 0.3333333, y: 0.3333333, z: 0.3333333}
      - serializedVersion: 3
        time: 0.5
        value: {x: 0.3, y: 0.3, z: 1}
        inSlope: {x: 0, y: 0, z: 0}
        outSlope: {x: 0, y: 0, z: 0}
        tangentMode: 1
        weightedMode: 0
        inWeight: {x: 0.3333333, y: 0.3333333, z: 0.3333333}
        outWeight: {x: 0.3333333, y: 0.3333333, z: 0.3333333}
      - serializedVersion: 3
        time: 1
        value: {x: 0.2, y: 0.2, z: 1}
        inSlope: {x: -0.2, y: -0.2, z: 0}
        outSlope: {x: 0, y: 0, z: 0}
        tangentMode: 1
        weightedMode: 0
        inWeight: {x: 0.3333333, y: 0.3333333, z: 0.3333333}
        outWeight: {x: 0.3333333, y: 0.3333333, z: 0.3333333}
      m_PreInfinity: 2
      m_PostInfinity: 2
      m_RotationOrder: 4
    path: path_42129444
  m_FloatCurves: []
  m_PPtrCurves: []
  m_SampleRate: 60
  m_WrapMode: 0
  m_Bounds:
    m_Center: {x: 0, y: 0, z: 0}
    m_Extent: {x: 0, y: 0, z: 0}
  m_ClipBindingConstant:
    genericBindings:
    - path: 3544212333
      attribute: 4
      script: {fileID: 0}
      classID: 4
      customType: 4
      isPPtrCurve: 0
    - path: 3394982444
      attribute: 4
      script: {fileID: 0}
      classID: 4
      customType: 4
      isPPtrCurve: 0
    - path: 966977864
      attribute: 4
      script: {fileID: 0}
      classID: 4
      customType: 4
      isPPtrCurve: 0
    - path: 549050377
      attribute: 4
      script: {fileID: 0}
      classID: 4
      customType: 4
      isPPtrCurve: 0
    - path: 194284490
      attribute: 4
      script: {fileID: 0}
      classID: 4
      customType: 4
      isPPtrCurve: 0
    - path: 311409291
      attribute: 4
      script: {fileID: 0}
      classID: 4
      customType: 4
      isPPtrCurve: 0
    - path: 1573792844
      attribute: 4
      script: {fileID: 0}
      classID: 4
      customType: 4
      isPPtrCurve: 0
    - path: 1154817293
      attribute: 4
      script: {fileID: 0}
      classID: 4
      customType: 4
      isPPtrCurve: 0
    - path: 1878544078
      attribute: 4
      script: {fileID: 0}
      classID: 4
      customType: 4
      isPPtrCurve: 0
    - path: 1994620815
      attribute: 4
      script: {fileID: 0}
      classID: 4
      customType: 4
      isPPtrCurve: 0
    - path: 4051395392
      attribute: 4
      script: {fileID: 0}
      classID: 4
      customType: 4
      isPPtrCurve: 0
    - path: 3898626561
      attribute: 4
      script: {fileID: 0}
      classID: 4
      customType: 4
      isPPtrCurve: 0
    - path: 3782607343
      attribute: 4
      script: {fileID: 0}
      classID: 4
      customType: 4
      isPPtrCurve: 0
    - path: 1004820241
      attribute: 4
      script: {fileID: 0}
      classID: 4
      customType: 4
      isPPtrCurve: 0
    - path: 587163216
      attribute: 4
      script: {fileID: 0}
      classID: 4
      customType: 4
      isPPtrCurve: 0
    - path: 164771219
      attribute: 4
      script: {fileID: 0}
      classID: 4
      customType: 4
      isPPtrCurve: 0
    - path: 281609426
      attribute: 4
      script: {fileID: 0}
      classID: 4
      customType: 4
      isPPtrCurve: 0
    - path: 1602785813
      attribute: 4
      script: {fileID: 0}
      classID: 4
      customType: 4
      isPPtrCurve: 0
    - path: 1184080724
      attribute: 4
      script: {fileID: 0}
      classID: 4
      customType: 4
      isPPtrCurve: 0
    - path: 1841229975
      attribute: 4
      script: {fileID: 0}
      classID: 4
      customType: 4
      isPPtrCurve: 0
    - path: 1957020118
      attribute: 4
      script: {fileID: 0}
      classID: 4
      customType: 4
      isPPtrCurve: 0
    - path: 4080917785
      attribute: 4
      script: {fileID: 0}
      classID: 4
      customType: 4
      isPPtrCurve: 0
    - path: 3928419416
      attribute: 4
      script: {fileID: 0}
      classID: 4
      customType: 4
      isPPtrCurve: 0
    - path: 4167905454
      attribute: 4
      script: {fileID: 0}
      classID: 4
      customType: 4
      isPPtrCurve: 0
    - path: 975584550
      attribute: 4
      script: {fileID: 0}
      classID: 4
      customType: 4
      isPPtrCurve: 0
    - path: 591203431
      attribute: 4
      script: {fileID: 0}
      classID: 4
      customType: 4
      isPPtrCurve: 0
    - path: 135290788
      attribute: 4
      script: {fileID: 0}
      classID: 4
      customType: 4
      isPPtrCurve: 0
    - path: 285961957
      attribute: 4
      script: {fileID: 0}
      classID: 4
      customType: 4
      isPPtrCurve: 0
    - path: 1581971490
      attribute: 4
      script: {fileID: 0}
      classID: 4
      customType: 4
      isPPtrCurve: 0
    - path: 1196542307
      attribute: 4
      script: {fileID: 0}
      classID: 4
      customType: 4
      isPPtrCurve: 0
    - path: 1820105376
      attribute: 4
      script: {fileID: 0}
      classID: 4
      customType: 4
      isPPtrCurve: 0
    - path: 1969728481
      attribute: 4
      script: {fileID: 0}
      classID: 4
      customType: 4
      isPPtrCurve: 0
    - path: 4076844846
      attribute: 4
      script: {fileID: 0}
      classID: 4
      customType: 4
      isPPtrCurve: 0
    - path: 3957622383
      attribute: 4
      script: {fileID: 0}
      classID: 4
      customType: 4
      isPPtrCurve: 0
    - path: 3073156713
      attribute: 4
      script: {fileID: 0}
      classID: 4
      customType: 4
      isPPtrCurve: 0
    - path: 2922878760
      attribute: 4
      script: {fileID: 0}
      classID: 4
      customType: 4
      isPPtrCurve: 0
    - path: 2233124075
      attribute: 4
      script: {fileID: 0}
      classID: 4
      customType: 4
      isPPtrCurve: 0
    - path: 2617374122
      attribute: 4
      script: {fileID: 0}
      classID: 4
      customType: 4
      isPPtrCurve: 0
    - path: 463071589
      attribute: 4
      script: {fileID: 0}
      classID: 4
      customType: 4
      isPPtrCurve: 0
    - path: 42129444
      attribute: 4
      script: {fileID: 0}
      classID: 4
      customType: 4
      isPPtrCurve: 0
    - path: 3544212333
      attribute: 3
      script: {fileID: 0}
      classID: 4
      customType: 0
      isPPtrCurve: 0
    - path: 3394982444
      attribute: 3
      script: {fileID: 0}
      classID: 4
      customType: 0
      isPPtrCurve: 0
    - path: 966977864
      attribute: 3
      script: {fileID: 0}
      classID: 4
      customType: 0
      isPPtrCurve: 0
    - path: 549050377
      attribute: 3
      script: {fileID: 0}
      classID: 4
      customType: 0
      isPPtrCurve: 0
    - path: 194284490
      attribute: 3
      script: {fileID: 0}
      classID: 4
      customType: 0
      isPPtrCurve: 0
    - path: 311409291
      attribute: 3
      script: {fileID: 0}
      classID: 4
      customType: 0
      isPPtrCurve: 0
    - path: 1573792844
      attribute: 3
      script: {fileID: 0}
      classID: 4
      customType: 0
      isPPtrCurve: 0
    - path: 1154817293
      attribute: 3
      script: {fileID: 0}
      classID: 4
      customType: 0
      isPPtrCurve: 0
    - path: 1878544078
      attribute: 3
      script: {fileID: 0}
      classID: 4
      customType: 0
      isPPtrCurve: 0
    - path: 1994620815
      attribute: 3
      script: {fileID: 0}
      classID: 4
      customType: 0
      isPPtrCurve: 0
    - path: 4051395392
      attribute: 3
      script: {fileID: 0}
      classID: 4
      customType: 0
      isPPtrCurve: 0
    - path: 3898626561
      attribute: 3
      script: {fileID: 0}
      classID: 4
      customType: 0
      isPPtrCurve: 0
    - path: 3782607343
      attribute: 3
      script: {fileID: 0}
      classID: 4
      customType: 0
      isPPtrCurve: 0
    - path: 1004820241
      attribute: 3
      script: {fileID: 0}
      classID: 4
      customType: 0
      isPPtrCurve: 0
    - path: 587163216
      attribute: 3
      script: {fileID: 0}
      classID: 4
      customType: 0
      isPPtrCurve: 0
    - path: 164771219
      attribute: 3
      script: {fileID: 0}
      classID: 4
      customType: 0
      isPPtrCurve: 0
    - path: 281609426
      attribute: 3
      script: {fileID: 0}
      classID: 4
      customType: 0
      isPPtrCurve: 0
    - path: 1602785813
      attribute: 3
      script: {fileID: 0}
      classID: 4
      customType: 0
      isPPtrCurve: 0
    - path: 1184080724
      attribute: 3
      script: {fileID: 0}
      classID: 4
      customType: 0
      isPPtrCurve: 0
    - path: 1841229975
      attribute: 3
      script: {fileID: 0}
      classID: 4
      customType: 0
      isPPtrCurve: 0
    - path: 1957020118
      attribute: 3
      script: {fileID: 0}
      classID: 4
      customType: 0
      isPPtrCurve: 0
    - path: 4080917785
      attribute: 3
      script: {fileID: 0}
      classID: 4
      customType: 0
      isPPtrCurve: 0
    - path: 3928419416
      attribute: 3
      script: {fileID: 0}
      classID: 4
      customType: 0
      isPPtrCurve: 0
    - path: 4167905454
      attribute: 3
      script: {fileID: 0}
      classID: 4
      customType: 0
      isPPtrCurve: 0
    - path: 975584550
      attribute: 3
      script: {fileID: 0}
      classID: 4
      customType: 0
      isPPtrCurve: 0
    - path: 591203431
      attribute: 3
      script: {fileID: 0}
      classID: 4
      customType: 0
      isPPtrCurve: 0
    - path: 135290788
      attribute: 3
      script: {fileID: 0}
      classID: 4
      customType: 0
      isPPtrCurve: 0
    - path: 285961957
      attribute: 3
      script: {fileID: 0}
      classID: 4
      customType: 0
      isPPtrCurve: 0
    - path: 1581971490
      attribute: 3
      script: {fileID: 0}
      classID: 4
      customType: 0
      isPPtrCurve: 0
    - path: 1196542307
      attribute: 3
      script: {fileID: 0}
      classID: 4
      customType: 0
      isPPtrCurve: 0
    - path: 1820105376
      attribute: 3
      script: {fileID: 0}
      classID: 4
      customType: 0
      isPPtrCurve: 0
    - path: 1969728481
      attribute: 3
      script: {fileID: 0}
      classID: 4
      customType: 0
      isPPtrCurve: 0
    - path: 4076844846
      attribute: 3
      script: {fileID: 0}
      classID: 4
      customType: 0
      isPPtrCurve: 0
    - path: 3957622383
      attribute: 3
      script: {fileID: 0}
      classID: 4
      customType: 0
      isPPtrCurve: 0
    - path: 3073156713
      attribute: 3
      script: {fileID: 0}
      classID: 4
      customType: 0
      isPPtrCurve: 0
    - path: 2922878760
      attribute: 3
      script: {fileID: 0}
      classID: 4
      customType: 0
      isPPtrCurve: 0
    - path: 2233124075
      attribute: 3
      script: {fileID: 0}
      classID: 4
      customType: 0
      isPPtrCurve: 0
    - path: 2617374122
      attribute: 3
      script: {fileID: 0}
      classID: 4
      customType: 0
      isPPtrCurve: 0
    - path: 463071589
      attribute: 3
      script: {fileID: 0}
      classID: 4
      customType: 0
      isPPtrCurve: 0
    - path: 42129444
      attribute: 3
      script: {fileID: 0}
      classID: 4
      customType: 0
      isPPtrCurve: 0
    pptrCurveMapping: []
  m_AnimationClipSettings:
    serializedVersion: 2
    m_AdditiveReferencePoseClip: {fileID: 0}
    m_AdditiveReferencePoseTime: 0
    m_StartTime: 0
    m_StopTime: 1
    m_OrientationOffsetY: 0
    m_Level: 0
    m_CycleOffset: 0
    m_HasAdditiveReferencePose: 0
    m_LoopTime: 1
    m_LoopBlend: 0
    m_LoopBlendOrientation: 0
    m_LoopBlendPositionY: 0
    m_LoopBlendPositionXZ: 0
    m_KeepOriginalOrientation: 0
    m_KeepOriginalPositionY: 1
    m_KeepOriginalPositionXZ: 0
    m_HeightFromFeet: 0
    m_Mirror: 0
  m_EditorCurves: []
  m_EulerEditorCurves: []
  m_HasGenericRootTransform: 0
  m_HasMotionFloatCurves: 0
  m_GenerateMotionCurves: 0
  m_Events: []
