%YAML 1.1
%TAG !u! tag:unity3d.com,2011:
--- !u!114 &11400000
MonoBehaviour:
  m_ObjectHideFlags: 0
  m_CorrespondingSourceObject: {fileID: 0}
  m_PrefabInstance: {fileID: 0}
  m_PrefabAsset: {fileID: 0}
  m_GameObject: {fileID: 0}
  m_Enabled: 1
  m_EditorHideFlags: 0
  m_Script: {fileID: 11500000, guid: 9f3758f8f58fdef43803eb9be1df0608, type: 3}
  m_Name: PhotonServerSettings
  m_EditorClassIdentifier: 
  AppSettings:
    AppIdRealtime: 5a5780cb-bc91-4aab-934d-87857eb31822
    AppIdChat: 4ba16930-b81c-4823-bc60-4410d9957b02
    AppIdVoice: 
    AppVersion: Carrom Online
    UseNameServer: 1
    FixedRegion: 
    Server: 
    Port: 0
    ProxyServer: 
    Protocol: 0
    EnableProtocolFallback: 1
    AuthMode: 0
    EnableLobbyStatistics: 0
    NetworkLogging: 1
  DevRegion: eu
  PunLogging: 0
  EnableSupportLogger: 0
  RunInBackground: 1
  StartInOfflineMode: 0
  RpcList:
  - AllStopped
  - AnimatePuck
  - AnimateQueenPuck
  - BeginGame
  - BeginNewRound
  - ChangeStrikerColor
  - ClickRpc
  - DestroyQueen
  - DestroyRpc
  - DestroySpaceship
  - DisableBallTrigger
  - DragStriker
  - EnableBallTrigger
  - EnableOrDisableCollider
  - EnableOrDisableDots
  - Fire
  - GameOver
  - HandleOwnerShip
  - HideWaitingMessage
  - MakeChangesToGameBeginner
  - MakeChangesToOtherPlayer
  - MoveBackStriker
  - MoveStriker
  - MoveStrikerIn
  - MoveStrikerOut
  - OpponentScoredPoint
  - PlayerLostPoint
  - PlayerScoredPoint
  - PlayerTurn
  - QueenAcquired
  - QueenNotAcquired
  - ReEnableStriker
  - RespawnSpaceship
  - ShowFoulMessage
  - ShowMessage
  - StopAudio
  - StopPuck
  - StrikerCanStrike
  - StrikerCantStrike
  - SyncPuck
  - UpdateLoader
  DisableAutoOpenWizard: 1
  ShowSettings: 1
  DevRegionSetOnce: 1
